input algorithm dosort hybrid indep rev sortby stealLatest mkspan time
4 area NA no NA NA NA NA 5982.85 15
4 HetPrio NA NA NA NA NA NA 12096.3 0
4 HetPrio NA NA NA NA NA yes 10633.3 0
4 heft NA NA NA NA NA NA 12096.3 0
4 indep NA NA dualhp NA NA NA 15972.5 0
4 indep no NA balest NA NA NA 10633.3 0
4 indep no NA balmks NA NA NA 10633.3 1
4 zhang NA NA NA NA NA NA 11999.3 0
4 indep NA NA zhang yes avg NA 15972.5 0
4 indep NA NA zhang yes min NA 13382.6 0
4 indep NA NA zhang yes accel NA 15972.5 0
4 indep NA NA zhang yes none NA 14629 0
4 indep NA NA zhang no avg NA 12096.3 0
4 indep NA NA zhang no min NA 15972.5 0
4 indep NA NA zhang no accel NA 12096.3 0
4 indep NA NA zhang no none NA 11999.3 0
8 area NA no NA NA NA NA 35641.5 6
8 HetPrio NA NA NA NA NA NA 38689.8 0
8 HetPrio NA NA NA NA NA yes 38689.8 0
8 heft NA NA NA NA NA NA 47279.4 0
8 indep NA NA dualhp NA NA NA 51415.7 0
8 indep no NA balest NA NA NA 51415.7 0
8 indep no NA balmks NA NA NA 38689.8 4
8 zhang NA NA NA NA NA NA 53834.5 1
8 indep NA NA zhang yes avg NA 66573.9 1
8 indep NA NA zhang yes min NA 49307 1
8 indep NA NA zhang yes accel NA 66573.9 1
8 indep NA NA zhang yes none NA 57389.1 1
8 indep NA NA zhang no avg NA 48848.6 1
8 indep NA NA zhang no min NA 66992.5 1
8 indep NA NA zhang no accel NA 48848.6 1
8 indep NA NA zhang no none NA 53834.5 1
12 area NA no NA NA NA NA 110282 5
12 HetPrio NA NA NA NA NA NA 113710 1
12 HetPrio NA NA NA NA NA yes 113710 1
12 heft NA NA NA NA NA NA 125776 1
12 indep NA NA dualhp NA NA NA 126486 5
12 indep no NA balest NA NA NA 115853 2
12 indep no NA balmks NA NA NA 111411 42
12 zhang NA NA NA NA NA NA 156096 5
12 indep NA NA zhang yes avg NA 168539 5
12 indep NA NA zhang yes min NA 152221 5
12 indep NA NA zhang yes accel NA 168539 5
12 indep NA NA zhang yes none NA 160489 5
12 indep NA NA zhang no avg NA 151995 5
12 indep NA NA zhang no min NA 168298 5
12 indep NA NA zhang no accel NA 151995 5
12 indep NA NA zhang no none NA 156096 3
16 area NA no NA NA NA NA 255506 3
16 HetPrio NA NA NA NA NA NA 257376 3
16 HetPrio NA NA NA NA NA yes 257376 3
16 heft NA NA NA NA NA NA 276054 4
16 indep NA NA dualhp NA NA NA 264576 13
16 indep no NA balest NA NA NA 264242 5
16 indep no NA balmks NA NA NA 257376 128
16 zhang NA NA NA NA NA NA 347955 11
16 indep NA NA zhang yes avg NA 359969 12
16 indep NA NA zhang yes min NA 342877 11
16 indep NA NA zhang yes accel NA 359969 10
16 indep NA NA zhang yes none NA 351896 8
16 indep NA NA zhang no avg NA 343529 8
16 indep NA NA zhang no min NA 359568 8
16 indep NA NA zhang no accel NA 343529 8
16 indep NA NA zhang no none NA 347955 8
20 area NA no NA NA NA NA 492426 4
20 HetPrio NA NA NA NA NA NA 494864 6
20 HetPrio NA NA NA NA NA yes 494864 6
20 heft NA NA NA NA NA NA 517893 8
20 indep NA NA dualhp NA NA NA 507551 22
20 indep no NA balest NA NA NA 494864 9
20 indep no NA balmks NA NA NA 493361 367
20 zhang NA NA NA NA NA NA 656506 16
20 indep NA NA zhang yes avg NA 667114 16
20 indep NA NA zhang yes min NA 651720 16
20 indep NA NA zhang yes accel NA 667114 16
20 indep NA NA zhang yes none NA 659762 15
20 indep NA NA zhang no avg NA 651311 16
20 indep NA NA zhang no min NA 667363 16
20 indep NA NA zhang no accel NA 651311 16
20 indep NA NA zhang no none NA 656506 15
24 area NA no NA NA NA NA 846770 4
24 HetPrio NA NA NA NA NA NA 850720 10
24 HetPrio NA NA NA NA NA yes 850720 10
24 heft NA NA NA NA NA NA 886632 11
24 indep NA NA dualhp NA NA NA 858078 30
24 indep no NA balest NA NA NA 847935 10
24 indep no NA balmks NA NA NA 847935 1041
24 zhang NA NA NA NA NA NA 1.10822e+06 28
24 indep NA NA zhang yes avg NA 1.11814e+06 28
24 indep NA NA zhang yes min NA 1.10236e+06 28
24 indep NA NA zhang yes accel NA 1.11814e+06 29
24 indep NA NA zhang yes none NA 1.11061e+06 30
24 indep NA NA zhang no avg NA 1.10157e+06 29
24 indep NA NA zhang no min NA 1.11857e+06 28
24 indep NA NA zhang no accel NA 1.10157e+06 28
24 indep NA NA zhang no none NA 1.10822e+06 27
28 area NA no NA NA NA NA 1.34203e+06 4
28 HetPrio NA NA NA NA NA NA 1.34513e+06 16
28 HetPrio NA NA NA NA NA yes 1.34513e+06 15
28 heft NA NA NA NA NA NA 1.4115e+06 14
28 indep NA NA dualhp NA NA NA 1.35114e+06 45
28 indep no NA balest NA NA NA 1.34539e+06 18
28 indep no NA balmks NA NA NA 1.34342e+06 2567
28 zhang NA NA NA NA NA NA 1.73e+06 48
28 indep NA NA zhang yes avg NA 1.73979e+06 47
28 indep NA NA zhang yes min NA 1.7243e+06 54
28 indep NA NA zhang yes accel NA 1.73979e+06 53
28 indep NA NA zhang yes none NA 1.7324e+06 44
28 indep NA NA zhang no avg NA 1.72398e+06 49
28 indep NA NA zhang no min NA 1.74e+06 55
28 indep NA NA zhang no accel NA 1.72398e+06 62
28 indep NA NA zhang no none NA 1.73e+06 48
32 area NA no NA NA NA NA 2.00022e+06 3
32 HetPrio NA NA NA NA NA NA 2.0032e+06 27
32 HetPrio NA NA NA NA NA yes 2.0032e+06 26
32 heft NA NA NA NA NA NA 2.08273e+06 33
32 indep NA NA dualhp NA NA NA 2.00823e+06 107
32 indep no NA balest NA NA NA 2.00715e+06 40
32 indep no NA balmks NA NA NA 2.00149e+06 5525
32 zhang NA NA NA NA NA NA 2.55155e+06 68
32 indep NA NA zhang yes avg NA 2.55995e+06 70
32 indep NA NA zhang yes min NA 2.54318e+06 69
32 indep NA NA zhang yes accel NA 2.55995e+06 69
32 indep NA NA zhang yes none NA 2.55169e+06 66
32 indep NA NA zhang no avg NA 2.5433e+06 72
32 indep NA NA zhang no min NA 2.55973e+06 71
32 indep NA NA zhang no accel NA 2.5433e+06 71
32 indep NA NA zhang no none NA 2.55155e+06 64
36 area NA no NA NA NA NA 2.84487e+06 4
36 HetPrio NA NA NA NA NA NA 2.8471e+06 33
36 HetPrio NA NA NA NA NA yes 2.8471e+06 34
36 heft NA NA NA NA NA NA 2.95166e+06 36
36 indep NA NA dualhp NA NA NA 2.8471e+06 135
36 indep no NA balest NA NA NA 2.8487e+06 55
36 indep no NA balmks NA NA NA 2.84539e+06 11109
36 zhang NA NA NA NA NA NA 3.59713e+06 114
36 indep NA NA zhang yes avg NA 3.60482e+06 112
36 indep NA NA zhang yes min NA 3.5886e+06 119
36 indep NA NA zhang yes accel NA 3.60482e+06 136
36 indep NA NA zhang yes none NA 3.59726e+06 131
36 indep NA NA zhang no avg NA 3.58841e+06 111
36 indep NA NA zhang no min NA 3.60489e+06 106
36 indep NA NA zhang no accel NA 3.58841e+06 108
36 indep NA NA zhang no none NA 3.59713e+06 111
40 area NA no NA NA NA NA 3.89857e+06 14
40 HetPrio NA NA NA NA NA NA 3.90411e+06 46
40 HetPrio NA NA NA NA NA yes 3.90411e+06 52
40 heft NA NA NA NA NA NA 4.05612e+06 65
40 indep NA NA dualhp NA NA NA 3.9024e+06 227
40 indep no NA balest NA NA NA 3.90246e+06 87
40 indep no NA balmks NA NA NA 3.9004e+06 19869
40 zhang NA NA NA NA NA NA 4.89414e+06 148
40 indep NA NA zhang yes avg NA 4.90227e+06 176
40 indep NA NA zhang yes min NA 4.88582e+06 229
40 indep NA NA zhang yes accel NA 4.90227e+06 192
40 indep NA NA zhang yes none NA 4.89413e+06 164
40 indep NA NA zhang no avg NA 4.88502e+06 188
40 indep NA NA zhang no min NA 4.90288e+06 220
40 indep NA NA zhang no accel NA 4.88502e+06 212
40 indep NA NA zhang no none NA 4.89588e+06 138
