[20, 4]
[4.853720e+04, 2.570786e+04, 3.484339e+04]
[1.704850e+03, 3.048334e+03, 2.012833e+04]
[2, 1, 1, 1, 1, 1, 1, 1, 1, 1, 1, 1, 1, 1, 1, 1, 1, 1, 1, 1, 1, 0, 0, 0, 0, 0, 0, 0, 0, 0, 0, 0, 0, 0, 0, 0, 0, 0, 0, 0, 1, 0, 0, 0, 0, 0, 0, 0, 0, 0, 0, 0, 0, 0, 0, 0, 0, 0, 0, 0, 1, 0, 0, 0, 0, 0, 0, 0, 0, 0, 0, 0, 0, 0, 0, 0, 0, 0, 0, 0, 1, 0, 0, 0, 0, 0, 0, 0, 0, 0, 0, 0, 0, 0, 0, 0, 0, 0, 0, 0, 1, 0, 0, 0, 0, 0, 0, 0, 0, 0, 0, 0, 0, 0, 0, 0, 0, 0, 0, 0, 1, 0, 0, 0, 0, 0, 0, 0, 0, 0, 0, 0, 0, 0, 0, 0, 0, 0, 0, 0, 1, 0, 0, 0, 0, 0, 0, 0, 0, 0, 0, 0, 0, 0, 0, 0, 0, 0, 0, 0, 1, 0, 0, 0, 0, 0, 0, 0, 0, 0, 0, 0, 0, 0, 0, 0, 0, 0, 0, 0, 1, 0, 0, 0, 0, 0, 0, 0, 0, 0, 0, 0, 0, 0, 0, 0, 0, 0, 0, 0, 1, 0, 0, 0, 0, 0, 0, 0, 0, 0, 0, 0, 0, 0, 0, 0, 0, 0, 0, 0, 1, 0, 0, 0, 0, 0, 0, 0, 0, 0, 0, 0, 0, 0, 0, 0, 0, 0, 0, 0, 1, 0, 0, 0, 0, 0, 0, 0, 0, 0, 0, 0, 0, 0, 0, 0, 0, 0, 0, 0, 1, 0, 0, 0, 0, 0, 0, 0, 0, 0, 0, 0, 0, 0, 0, 0, 0, 0, 0, 0, 1, 0, 0, 0, 0, 0, 0, 0, 0, 0, 0, 0, 0, 0, 0, 0, 0, 0, 0, 0, 1, 0, 0, 0, 0, 0, 0, 0, 0, 0, 0, 0, 0, 0, 0, 0, 0, 0, 0, 0, 1, 0, 0, 0, 0, 0, 0, 0, 0, 0, 0, 0, 0, 0, 0, 0, 0, 0, 0, 0, 1, 0, 0, 0, 0, 0, 0, 0, 0, 0, 0, 0, 0, 0, 0, 0, 0, 0, 0, 0, 1, 0, 0, 0, 0, 0, 0, 0, 0, 0, 0, 0, 0, 0, 0, 0, 0, 0, 0, 0, 1, 0, 0, 0, 0, 0, 0, 0, 0, 0, 0, 0, 0, 0, 0, 0, 0, 0, 0, 0, 2, 1, 1, 1, 1, 1, 1, 1, 1, 1, 1, 1, 1, 1, 1, 1, 1, 1, 1, 1, 0, 0, 0, 0, 0, 0, 0, 0, 0, 0, 0, 0, 0, 0, 0, 0, 0, 0, 1, 0, 0, 0, 0, 0, 0, 0, 0, 0, 0, 0, 0, 0, 0, 0, 0, 0, 0, 1, 0, 0, 0, 0, 0, 0, 0, 0, 0, 0, 0, 0, 0, 0, 0, 0, 0, 0, 1, 0, 0, 0, 0, 0, 0, 0, 0, 0, 0, 0, 0, 0, 0, 0, 0, 0, 0, 1, 0, 0, 0, 0, 0, 0, 0, 0, 0, 0, 0, 0, 0, 0, 0, 0, 0, 0, 1, 0, 0, 0, 0, 0, 0, 0, 0, 0, 0, 0, 0, 0, 0, 0, 0, 0, 0, 1, 0, 0, 0, 0, 0, 0, 0, 0, 0, 0, 0, 0, 0, 0, 0, 0, 0, 0, 1, 0, 0, 0, 0, 0, 0, 0, 0, 0, 0, 0, 0, 0, 0, 0, 0, 0, 0, 1, 0, 0, 0, 0, 0, 0, 0, 0, 0, 0, 0, 0, 0, 0, 0, 0, 0, 0, 1, 0, 0, 0, 0, 0, 0, 0, 0, 0, 0, 0, 0, 0, 0, 0, 0, 0, 0, 1, 0, 0, 0, 0, 0, 0, 0, 0, 0, 0, 0, 0, 0, 0, 0, 0, 0, 0, 1, 0, 0, 0, 0, 0, 0, 0, 0, 0, 0, 0, 0, 0, 0, 0, 0, 0, 0, 1, 0, 0, 0, 0, 0, 0, 0, 0, 0, 0, 0, 0, 0, 0, 0, 0, 0, 0, 1, 0, 0, 0, 0, 0, 0, 0, 0, 0, 0, 0, 0, 0, 0, 0, 0, 0, 0, 1, 0, 0, 0, 0, 0, 0, 0, 0, 0, 0, 0, 0, 0, 0, 0, 0, 0, 0, 1, 0, 0, 0, 0, 0, 0, 0, 0, 0, 0, 0, 0, 0, 0, 0, 0, 0, 0, 1, 0, 0, 0, 0, 0, 0, 0, 0, 0, 0, 0, 0, 0, 0, 0, 0, 0, 0, 1, 0, 0, 0, 0, 0, 0, 0, 0, 0, 0, 0, 0, 0, 0, 0, 0, 0, 0, 2, 1, 1, 1, 1, 1, 1, 1, 1, 1, 1, 1, 1, 1, 1, 1, 1, 1, 1, 0, 0, 0, 0, 0, 0, 0, 0, 0, 0, 0, 0, 0, 0, 0, 0, 0, 1, 0, 0, 0, 0, 0, 0, 0, 0, 0, 0, 0, 0, 0, 0, 0, 0, 0, 1, 0, 0, 0, 0, 0, 0, 0, 0, 0, 0, 0, 0, 0, 0, 0, 0, 0, 1, 0, 0, 0, 0, 0, 0, 0, 0, 0, 0, 0, 0, 0, 0, 0, 0, 0, 1, 0, 0, 0, 0, 0, 0, 0, 0, 0, 0, 0, 0, 0, 0, 0, 0, 0, 1, 0, 0, 0, 0, 0, 0, 0, 0, 0, 0, 0, 0, 0, 0, 0, 0, 0, 1, 0, 0, 0, 0, 0, 0, 0, 0, 0, 0, 0, 0, 0, 0, 0, 0, 0, 1, 0, 0, 0, 0, 0, 0, 0, 0, 0, 0, 0, 0, 0, 0, 0, 0, 0, 1, 0, 0, 0, 0, 0, 0, 0, 0, 0, 0, 0, 0, 0, 0, 0, 0, 0, 1, 0, 0, 0, 0, 0, 0, 0, 0, 0, 0, 0, 0, 0, 0, 0, 0, 0, 1, 0, 0, 0, 0, 0, 0, 0, 0, 0, 0, 0, 0, 0, 0, 0, 0, 0, 1, 0, 0, 0, 0, 0, 0, 0, 0, 0, 0, 0, 0, 0, 0, 0, 0, 0, 1, 0, 0, 0, 0, 0, 0, 0, 0, 0, 0, 0, 0, 0, 0, 0, 0, 0, 1, 0, 0, 0, 0, 0, 0, 0, 0, 0, 0, 0, 0, 0, 0, 0, 0, 0, 1, 0, 0, 0, 0, 0, 0, 0, 0, 0, 0, 0, 0, 0, 0, 0, 0, 0, 1, 0, 0, 0, 0, 0, 0, 0, 0, 0, 0, 0, 0, 0, 0, 0, 0, 0, 1, 0, 0, 0, 0, 0, 0, 0, 0, 0, 0, 0, 0, 0, 0, 0, 0, 0, 2, 1, 1, 1, 1, 1, 1, 1, 1, 1, 1, 1, 1, 1, 1, 1, 1, 1, 0, 0, 0, 0, 0, 0, 0, 0, 0, 0, 0, 0, 0, 0, 0, 0, 1, 0, 0, 0, 0, 0, 0, 0, 0, 0, 0, 0, 0, 0, 0, 0, 0, 1, 0, 0, 0, 0, 0, 0, 0, 0, 0, 0, 0, 0, 0, 0, 0, 0, 1, 0, 0, 0, 0, 0, 0, 0, 0, 0, 0, 0, 0, 0, 0, 0, 0, 1, 0, 0, 0, 0, 0, 0, 0, 0, 0, 0, 0, 0, 0, 0, 0, 0, 1, 0, 0, 0, 0, 0, 0, 0, 0, 0, 0, 0, 0, 0, 0, 0, 0, 1, 0, 0, 0, 0, 0, 0, 0, 0, 0, 0, 0, 0, 0, 0, 0, 0, 1, 0, 0, 0, 0, 0, 0, 0, 0, 0, 0, 0, 0, 0, 0, 0, 0, 1, 0, 0, 0, 0, 0, 0, 0, 0, 0, 0, 0, 0, 0, 0, 0, 0, 1, 0, 0, 0, 0, 0, 0, 0, 0, 0, 0, 0, 0, 0, 0, 0, 0, 1, 0, 0, 0, 0, 0, 0, 0, 0, 0, 0, 0, 0, 0, 0, 0, 0, 1, 0, 0, 0, 0, 0, 0, 0, 0, 0, 0, 0, 0, 0, 0, 0, 0, 1, 0, 0, 0, 0, 0, 0, 0, 0, 0, 0, 0, 0, 0, 0, 0, 0, 1, 0, 0, 0, 0, 0, 0, 0, 0, 0, 0, 0, 0, 0, 0, 0, 0, 1, 0, 0, 0, 0, 0, 0, 0, 0, 0, 0, 0, 0, 0, 0, 0, 0, 1, 0, 0, 0, 0, 0, 0, 0, 0, 0, 0, 0, 0, 0, 0, 0, 0, 2, 1, 1, 1, 1, 1, 1, 1, 1, 1, 1, 1, 1, 1, 1, 1, 1, 0, 0, 0, 0, 0, 0, 0, 0, 0, 0, 0, 0, 0, 0, 0, 1, 0, 0, 0, 0, 0, 0, 0, 0, 0, 0, 0, 0, 0, 0, 0, 1, 0, 0, 0, 0, 0, 0, 0, 0, 0, 0, 0, 0, 0, 0, 0, 1, 0, 0, 0, 0, 0, 0, 0, 0, 0, 0, 0, 0, 0, 0, 0, 1, 0, 0, 0, 0, 0, 0, 0, 0, 0, 0, 0, 0, 0, 0, 0, 1, 0, 0, 0, 0, 0, 0, 0, 0, 0, 0, 0, 0, 0, 0, 0, 1, 0, 0, 0, 0, 0, 0, 0, 0, 0, 0, 0, 0, 0, 0, 0, 1, 0, 0, 0, 0, 0, 0, 0, 0, 0, 0, 0, 0, 0, 0, 0, 1, 0, 0, 0, 0, 0, 0, 0, 0, 0, 0, 0, 0, 0, 0, 0, 1, 0, 0, 0, 0, 0, 0, 0, 0, 0, 0, 0, 0, 0, 0, 0, 1, 0, 0, 0, 0, 0, 0, 0, 0, 0, 0, 0, 0, 0, 0, 0, 1, 0, 0, 0, 0, 0, 0, 0, 0, 0, 0, 0, 0, 0, 0, 0, 1, 0, 0, 0, 0, 0, 0, 0, 0, 0, 0, 0, 0, 0, 0, 0, 1, 0, 0, 0, 0, 0, 0, 0, 0, 0, 0, 0, 0, 0, 0, 0, 1, 0, 0, 0, 0, 0, 0, 0, 0, 0, 0, 0, 0, 0, 0, 0, 2, 1, 1, 1, 1, 1, 1, 1, 1, 1, 1, 1, 1, 1, 1, 1, 0, 0, 0, 0, 0, 0, 0, 0, 0, 0, 0, 0, 0, 0, 1, 0, 0, 0, 0, 0, 0, 0, 0, 0, 0, 0, 0, 0, 0, 1, 0, 0, 0, 0, 0, 0, 0, 0, 0, 0, 0, 0, 0, 0, 1, 0, 0, 0, 0, 0, 0, 0, 0, 0, 0, 0, 0, 0, 0, 1, 0, 0, 0, 0, 0, 0, 0, 0, 0, 0, 0, 0, 0, 0, 1, 0, 0, 0, 0, 0, 0, 0, 0, 0, 0, 0, 0, 0, 0, 1, 0, 0, 0, 0, 0, 0, 0, 0, 0, 0, 0, 0, 0, 0, 1, 0, 0, 0, 0, 0, 0, 0, 0, 0, 0, 0, 0, 0, 0, 1, 0, 0, 0, 0, 0, 0, 0, 0, 0, 0, 0, 0, 0, 0, 1, 0, 0, 0, 0, 0, 0, 0, 0, 0, 0, 0, 0, 0, 0, 1, 0, 0, 0, 0, 0, 0, 0, 0, 0, 0, 0, 0, 0, 0, 1, 0, 0, 0, 0, 0, 0, 0, 0, 0, 0, 0, 0, 0, 0, 1, 0, 0, 0, 0, 0, 0, 0, 0, 0, 0, 0, 0, 0, 0, 1, 0, 0, 0, 0, 0, 0, 0, 0, 0, 0, 0, 0, 0, 0, 2, 1, 1, 1, 1, 1, 1, 1, 1, 1, 1, 1, 1, 1, 1, 0, 0, 0, 0, 0, 0, 0, 0, 0, 0, 0, 0, 0, 1, 0, 0, 0, 0, 0, 0, 0, 0, 0, 0, 0, 0, 0, 1, 0, 0, 0, 0, 0, 0, 0, 0, 0, 0, 0, 0, 0, 1, 0, 0, 0, 0, 0, 0, 0, 0, 0, 0, 0, 0, 0, 1, 0, 0, 0, 0, 0, 0, 0, 0, 0, 0, 0, 0, 0, 1, 0, 0, 0, 0, 0, 0, 0, 0, 0, 0, 0, 0, 0, 1, 0, 0, 0, 0, 0, 0, 0, 0, 0, 0, 0, 0, 0, 1, 0, 0, 0, 0, 0, 0, 0, 0, 0, 0, 0, 0, 0, 1, 0, 0, 0, 0, 0, 0, 0, 0, 0, 0, 0, 0, 0, 1, 0, 0, 0, 0, 0, 0, 0, 0, 0, 0, 0, 0, 0, 1, 0, 0, 0, 0, 0, 0, 0, 0, 0, 0, 0, 0, 0, 1, 0, 0, 0, 0, 0, 0, 0, 0, 0, 0, 0, 0, 0, 1, 0, 0, 0, 0, 0, 0, 0, 0, 0, 0, 0, 0, 0, 2, 1, 1, 1, 1, 1, 1, 1, 1, 1, 1, 1, 1, 1, 0, 0, 0, 0, 0, 0, 0, 0, 0, 0, 0, 0, 1, 0, 0, 0, 0, 0, 0, 0, 0, 0, 0, 0, 0, 1, 0, 0, 0, 0, 0, 0, 0, 0, 0, 0, 0, 0, 1, 0, 0, 0, 0, 0, 0, 0, 0, 0, 0, 0, 0, 1, 0, 0, 0, 0, 0, 0, 0, 0, 0, 0, 0, 0, 1, 0, 0, 0, 0, 0, 0, 0, 0, 0, 0, 0, 0, 1, 0, 0, 0, 0, 0, 0, 0, 0, 0, 0, 0, 0, 1, 0, 0, 0, 0, 0, 0, 0, 0, 0, 0, 0, 0, 1, 0, 0, 0, 0, 0, 0, 0, 0, 0, 0, 0, 0, 1, 0, 0, 0, 0, 0, 0, 0, 0, 0, 0, 0, 0, 1, 0, 0, 0, 0, 0, 0, 0, 0, 0, 0, 0, 0, 1, 0, 0, 0, 0, 0, 0, 0, 0, 0, 0, 0, 0, 2, 1, 1, 1, 1, 1, 1, 1, 1, 1, 1, 1, 1, 0, 0, 0, 0, 0, 0, 0, 0, 0, 0, 0, 1, 0, 0, 0, 0, 0, 0, 0, 0, 0, 0, 0, 1, 0, 0, 0, 0, 0, 0, 0, 0, 0, 0, 0, 1, 0, 0, 0, 0, 0, 0, 0, 0, 0, 0, 0, 1, 0, 0, 0, 0, 0, 0, 0, 0, 0, 0, 0, 1, 0, 0, 0, 0, 0, 0, 0, 0, 0, 0, 0, 1, 0, 0, 0, 0, 0, 0, 0, 0, 0, 0, 0, 1, 0, 0, 0, 0, 0, 0, 0, 0, 0, 0, 0, 1, 0, 0, 0, 0, 0, 0, 0, 0, 0, 0, 0, 1, 0, 0, 0, 0, 0, 0, 0, 0, 0, 0, 0, 1, 0, 0, 0, 0, 0, 0, 0, 0, 0, 0, 0, 2, 1, 1, 1, 1, 1, 1, 1, 1, 1, 1, 1, 0, 0, 0, 0, 0, 0, 0, 0, 0, 0, 1, 0, 0, 0, 0, 0, 0, 0, 0, 0, 0, 1, 0, 0, 0, 0, 0, 0, 0, 0, 0, 0, 1, 0, 0, 0, 0, 0, 0, 0, 0, 0, 0, 1, 0, 0, 0, 0, 0, 0, 0, 0, 0, 0, 1, 0, 0, 0, 0, 0, 0, 0, 0, 0, 0, 1, 0, 0, 0, 0, 0, 0, 0, 0, 0, 0, 1, 0, 0, 0, 0, 0, 0, 0, 0, 0, 0, 1, 0, 0, 0, 0, 0, 0, 0, 0, 0, 0, 1, 0, 0, 0, 0, 0, 0, 0, 0, 0, 0, 2, 1, 1, 1, 1, 1, 1, 1, 1, 1, 1, 0, 0, 0, 0, 0, 0, 0, 0, 0, 1, 0, 0, 0, 0, 0, 0, 0, 0, 0, 1, 0, 0, 0, 0, 0, 0, 0, 0, 0, 1, 0, 0, 0, 0, 0, 0, 0, 0, 0, 1, 0, 0, 0, 0, 0, 0, 0, 0, 0, 1, 0, 0, 0, 0, 0, 0, 0, 0, 0, 1, 0, 0, 0, 0, 0, 0, 0, 0, 0, 1, 0, 0, 0, 0, 0, 0, 0, 0, 0, 1, 0, 0, 0, 0, 0, 0, 0, 0, 0, 2, 1, 1, 1, 1, 1, 1, 1, 1, 1, 0, 0, 0, 0, 0, 0, 0, 0, 1, 0, 0, 0, 0, 0, 0, 0, 0, 1, 0, 0, 0, 0, 0, 0, 0, 0, 1, 0, 0, 0, 0, 0, 0, 0, 0, 1, 0, 0, 0, 0, 0, 0, 0, 0, 1, 0, 0, 0, 0, 0, 0, 0, 0, 1, 0, 0, 0, 0, 0, 0, 0, 0, 1, 0, 0, 0, 0, 0, 0, 0, 0, 2, 1, 1, 1, 1, 1, 1, 1, 1, 0, 0, 0, 0, 0, 0, 0, 1, 0, 0, 0, 0, 0, 0, 0, 1, 0, 0, 0, 0, 0, 0, 0, 1, 0, 0, 0, 0, 0, 0, 0, 1, 0, 0, 0, 0, 0, 0, 0, 1, 0, 0, 0, 0, 0, 0, 0, 1, 0, 0, 0, 0, 0, 0, 0, 2, 1, 1, 1, 1, 1, 1, 1, 0, 0, 0, 0, 0, 0, 1, 0, 0, 0, 0, 0, 0, 1, 0, 0, 0, 0, 0, 0, 1, 0, 0, 0, 0, 0, 0, 1, 0, 0, 0, 0, 0, 0, 1, 0, 0, 0, 0, 0, 0, 2, 1, 1, 1, 1, 1, 1, 0, 0, 0, 0, 0, 1, 0, 0, 0, 0, 0, 1, 0, 0, 0, 0, 0, 1, 0, 0, 0, 0, 0, 1, 0, 0, 0, 0, 0, 2, 1, 1, 1, 1, 1, 0, 0, 0, 0, 1, 0, 0, 0, 0, 1, 0, 0, 0, 0, 1, 0, 0, 0, 0, 2, 1, 1, 1, 1, 0, 0, 0, 1, 0, 0, 0, 1, 0, 0, 0, 2, 1, 1, 1, 0, 0, 1, 0, 0, 2, 1, 1, 0, 2]
[]
[1]
[1]
[1]
[1]
[1]
[1]
[1]
[1]
[1]
[1]
[1]
[1]
[1]
[1]
[1]
[1]
[1]
[1]
[1]
[1]
[2, 21]
[3, 21]
[4, 21]
[5, 21]
[6, 21]
[7, 21]
[8, 21]
[9, 21]
[10, 21]
[11, 21]
[12, 21]
[13, 21]
[14, 21]
[15, 21]
[16, 21]
[17, 21]
[18, 21]
[19, 21]
[20, 21]
[1]
[2, 41]
[3, 41]
[4, 41]
[5, 41]
[6, 41]
[7, 41]
[8, 41]
[9, 41]
[10, 41]
[11, 41]
[12, 41]
[13, 41]
[14, 41]
[15, 41]
[16, 41]
[17, 41]
[18, 41]
[19, 41]
[20, 41]
[1]
[2, 61]
[3, 61]
[4, 61]
[5, 61]
[6, 61]
[7, 61]
[8, 61]
[9, 61]
[10, 61]
[11, 61]
[12, 61]
[13, 61]
[14, 61]
[15, 61]
[16, 61]
[17, 61]
[18, 61]
[19, 61]
[20, 61]
[1]
[2, 81]
[3, 81]
[4, 81]
[5, 81]
[6, 81]
[7, 81]
[8, 81]
[9, 81]
[10, 81]
[11, 81]
[12, 81]
[13, 81]
[14, 81]
[15, 81]
[16, 81]
[17, 81]
[18, 81]
[19, 81]
[20, 81]
[1]
[2, 101]
[3, 101]
[4, 101]
[5, 101]
[6, 101]
[7, 101]
[8, 101]
[9, 101]
[10, 101]
[11, 101]
[12, 101]
[13, 101]
[14, 101]
[15, 101]
[16, 101]
[17, 101]
[18, 101]
[19, 101]
[20, 101]
[1]
[2, 121]
[3, 121]
[4, 121]
[5, 121]
[6, 121]
[7, 121]
[8, 121]
[9, 121]
[10, 121]
[11, 121]
[12, 121]
[13, 121]
[14, 121]
[15, 121]
[16, 121]
[17, 121]
[18, 121]
[19, 121]
[20, 121]
[1]
[2, 141]
[3, 141]
[4, 141]
[5, 141]
[6, 141]
[7, 141]
[8, 141]
[9, 141]
[10, 141]
[11, 141]
[12, 141]
[13, 141]
[14, 141]
[15, 141]
[16, 141]
[17, 141]
[18, 141]
[19, 141]
[20, 141]
[1]
[2, 161]
[3, 161]
[4, 161]
[5, 161]
[6, 161]
[7, 161]
[8, 161]
[9, 161]
[10, 161]
[11, 161]
[12, 161]
[13, 161]
[14, 161]
[15, 161]
[16, 161]
[17, 161]
[18, 161]
[19, 161]
[20, 161]
[1]
[2, 181]
[3, 181]
[4, 181]
[5, 181]
[6, 181]
[7, 181]
[8, 181]
[9, 181]
[10, 181]
[11, 181]
[12, 181]
[13, 181]
[14, 181]
[15, 181]
[16, 181]
[17, 181]
[18, 181]
[19, 181]
[20, 181]
[1]
[2, 201]
[3, 201]
[4, 201]
[5, 201]
[6, 201]
[7, 201]
[8, 201]
[9, 201]
[10, 201]
[11, 201]
[12, 201]
[13, 201]
[14, 201]
[15, 201]
[16, 201]
[17, 201]
[18, 201]
[19, 201]
[20, 201]
[1]
[2, 221]
[3, 221]
[4, 221]
[5, 221]
[6, 221]
[7, 221]
[8, 221]
[9, 221]
[10, 221]
[11, 221]
[12, 221]
[13, 221]
[14, 221]
[15, 221]
[16, 221]
[17, 221]
[18, 221]
[19, 221]
[20, 221]
[1]
[2, 241]
[3, 241]
[4, 241]
[5, 241]
[6, 241]
[7, 241]
[8, 241]
[9, 241]
[10, 241]
[11, 241]
[12, 241]
[13, 241]
[14, 241]
[15, 241]
[16, 241]
[17, 241]
[18, 241]
[19, 241]
[20, 241]
[1]
[2, 261]
[3, 261]
[4, 261]
[5, 261]
[6, 261]
[7, 261]
[8, 261]
[9, 261]
[10, 261]
[11, 261]
[12, 261]
[13, 261]
[14, 261]
[15, 261]
[16, 261]
[17, 261]
[18, 261]
[19, 261]
[20, 261]
[1]
[2, 281]
[3, 281]
[4, 281]
[5, 281]
[6, 281]
[7, 281]
[8, 281]
[9, 281]
[10, 281]
[11, 281]
[12, 281]
[13, 281]
[14, 281]
[15, 281]
[16, 281]
[17, 281]
[18, 281]
[19, 281]
[20, 281]
[1]
[2, 301]
[3, 301]
[4, 301]
[5, 301]
[6, 301]
[7, 301]
[8, 301]
[9, 301]
[10, 301]
[11, 301]
[12, 301]
[13, 301]
[14, 301]
[15, 301]
[16, 301]
[17, 301]
[18, 301]
[19, 301]
[20, 301]
[1]
[2, 321]
[3, 321]
[4, 321]
[5, 321]
[6, 321]
[7, 321]
[8, 321]
[9, 321]
[10, 321]
[11, 321]
[12, 321]
[13, 321]
[14, 321]
[15, 321]
[16, 321]
[17, 321]
[18, 321]
[19, 321]
[20, 321]
[1]
[2, 341]
[3, 341]
[4, 341]
[5, 341]
[6, 341]
[7, 341]
[8, 341]
[9, 341]
[10, 341]
[11, 341]
[12, 341]
[13, 341]
[14, 341]
[15, 341]
[16, 341]
[17, 341]
[18, 341]
[19, 341]
[20, 341]
[1]
[2, 361]
[3, 361]
[4, 361]
[5, 361]
[6, 361]
[7, 361]
[8, 361]
[9, 361]
[10, 361]
[11, 361]
[12, 361]
[13, 361]
[14, 361]
[15, 361]
[16, 361]
[17, 361]
[18, 361]
[19, 361]
[20, 361]
[1]
[2, 381]
[3, 381]
[4, 381]
[5, 381]
[6, 381]
[7, 381]
[8, 381]
[9, 381]
[10, 381]
[11, 381]
[12, 381]
[13, 381]
[14, 381]
[15, 381]
[16, 381]
[17, 381]
[18, 381]
[19, 381]
[20, 381]
[22]
[401, 23]
[401, 24]
[401, 25]
[401, 26]
[401, 27]
[401, 28]
[401, 29]
[401, 30]
[401, 31]
[401, 32]
[401, 33]
[401, 34]
[401, 35]
[401, 36]
[401, 37]
[401, 38]
[401, 39]
[401, 40]
[401, 42]
[402, 420, 43]
[403, 420, 44]
[404, 420, 45]
[405, 420, 46]
[406, 420, 47]
[407, 420, 48]
[408, 420, 49]
[409, 420, 50]
[410, 420, 51]
[411, 420, 52]
[412, 420, 53]
[413, 420, 54]
[414, 420, 55]
[415, 420, 56]
[416, 420, 57]
[417, 420, 58]
[418, 420, 59]
[419, 420, 60]
[401, 62]
[402, 439, 63]
[403, 439, 64]
[404, 439, 65]
[405, 439, 66]
[406, 439, 67]
[407, 439, 68]
[408, 439, 69]
[409, 439, 70]
[410, 439, 71]
[411, 439, 72]
[412, 439, 73]
[413, 439, 74]
[414, 439, 75]
[415, 439, 76]
[416, 439, 77]
[417, 439, 78]
[418, 439, 79]
[419, 439, 80]
[401, 82]
[402, 458, 83]
[403, 458, 84]
[404, 458, 85]
[405, 458, 86]
[406, 458, 87]
[407, 458, 88]
[408, 458, 89]
[409, 458, 90]
[410, 458, 91]
[411, 458, 92]
[412, 458, 93]
[413, 458, 94]
[414, 458, 95]
[415, 458, 96]
[416, 458, 97]
[417, 458, 98]
[418, 458, 99]
[419, 458, 100]
[401, 102]
[402, 477, 103]
[403, 477, 104]
[404, 477, 105]
[405, 477, 106]
[406, 477, 107]
[407, 477, 108]
[408, 477, 109]
[409, 477, 110]
[410, 477, 111]
[411, 477, 112]
[412, 477, 113]
[413, 477, 114]
[414, 477, 115]
[415, 477, 116]
[416, 477, 117]
[417, 477, 118]
[418, 477, 119]
[419, 477, 120]
[401, 122]
[402, 496, 123]
[403, 496, 124]
[404, 496, 125]
[405, 496, 126]
[406, 496, 127]
[407, 496, 128]
[408, 496, 129]
[409, 496, 130]
[410, 496, 131]
[411, 496, 132]
[412, 496, 133]
[413, 496, 134]
[414, 496, 135]
[415, 496, 136]
[416, 496, 137]
[417, 496, 138]
[418, 496, 139]
[419, 496, 140]
[401, 142]
[402, 515, 143]
[403, 515, 144]
[404, 515, 145]
[405, 515, 146]
[406, 515, 147]
[407, 515, 148]
[408, 515, 149]
[409, 515, 150]
[410, 515, 151]
[411, 515, 152]
[412, 515, 153]
[413, 515, 154]
[414, 515, 155]
[415, 515, 156]
[416, 515, 157]
[417, 515, 158]
[418, 515, 159]
[419, 515, 160]
[401, 162]
[402, 534, 163]
[403, 534, 164]
[404, 534, 165]
[405, 534, 166]
[406, 534, 167]
[407, 534, 168]
[408, 534, 169]
[409, 534, 170]
[410, 534, 171]
[411, 534, 172]
[412, 534, 173]
[413, 534, 174]
[414, 534, 175]
[415, 534, 176]
[416, 534, 177]
[417, 534, 178]
[418, 534, 179]
[419, 534, 180]
[401, 182]
[402, 553, 183]
[403, 553, 184]
[404, 553, 185]
[405, 553, 186]
[406, 553, 187]
[407, 553, 188]
[408, 553, 189]
[409, 553, 190]
[410, 553, 191]
[411, 553, 192]
[412, 553, 193]
[413, 553, 194]
[414, 553, 195]
[415, 553, 196]
[416, 553, 197]
[417, 553, 198]
[418, 553, 199]
[419, 553, 200]
[401, 202]
[402, 572, 203]
[403, 572, 204]
[404, 572, 205]
[405, 572, 206]
[406, 572, 207]
[407, 572, 208]
[408, 572, 209]
[409, 572, 210]
[410, 572, 211]
[411, 572, 212]
[412, 572, 213]
[413, 572, 214]
[414, 572, 215]
[415, 572, 216]
[416, 572, 217]
[417, 572, 218]
[418, 572, 219]
[419, 572, 220]
[401, 222]
[402, 591, 223]
[403, 591, 224]
[404, 591, 225]
[405, 591, 226]
[406, 591, 227]
[407, 591, 228]
[408, 591, 229]
[409, 591, 230]
[410, 591, 231]
[411, 591, 232]
[412, 591, 233]
[413, 591, 234]
[414, 591, 235]
[415, 591, 236]
[416, 591, 237]
[417, 591, 238]
[418, 591, 239]
[419, 591, 240]
[401, 242]
[402, 610, 243]
[403, 610, 244]
[404, 610, 245]
[405, 610, 246]
[406, 610, 247]
[407, 610, 248]
[408, 610, 249]
[409, 610, 250]
[410, 610, 251]
[411, 610, 252]
[412, 610, 253]
[413, 610, 254]
[414, 610, 255]
[415, 610, 256]
[416, 610, 257]
[417, 610, 258]
[418, 610, 259]
[419, 610, 260]
[401, 262]
[402, 629, 263]
[403, 629, 264]
[404, 629, 265]
[405, 629, 266]
[406, 629, 267]
[407, 629, 268]
[408, 629, 269]
[409, 629, 270]
[410, 629, 271]
[411, 629, 272]
[412, 629, 273]
[413, 629, 274]
[414, 629, 275]
[415, 629, 276]
[416, 629, 277]
[417, 629, 278]
[418, 629, 279]
[419, 629, 280]
[401, 282]
[402, 648, 283]
[403, 648, 284]
[404, 648, 285]
[405, 648, 286]
[406, 648, 287]
[407, 648, 288]
[408, 648, 289]
[409, 648, 290]
[410, 648, 291]
[411, 648, 292]
[412, 648, 293]
[413, 648, 294]
[414, 648, 295]
[415, 648, 296]
[416, 648, 297]
[417, 648, 298]
[418, 648, 299]
[419, 648, 300]
[401, 302]
[402, 667, 303]
[403, 667, 304]
[404, 667, 305]
[405, 667, 306]
[406, 667, 307]
[407, 667, 308]
[408, 667, 309]
[409, 667, 310]
[410, 667, 311]
[411, 667, 312]
[412, 667, 313]
[413, 667, 314]
[414, 667, 315]
[415, 667, 316]
[416, 667, 317]
[417, 667, 318]
[418, 667, 319]
[419, 667, 320]
[401, 322]
[402, 686, 323]
[403, 686, 324]
[404, 686, 325]
[405, 686, 326]
[406, 686, 327]
[407, 686, 328]
[408, 686, 329]
[409, 686, 330]
[410, 686, 331]
[411, 686, 332]
[412, 686, 333]
[413, 686, 334]
[414, 686, 335]
[415, 686, 336]
[416, 686, 337]
[417, 686, 338]
[418, 686, 339]
[419, 686, 340]
[401, 342]
[402, 705, 343]
[403, 705, 344]
[404, 705, 345]
[405, 705, 346]
[406, 705, 347]
[407, 705, 348]
[408, 705, 349]
[409, 705, 350]
[410, 705, 351]
[411, 705, 352]
[412, 705, 353]
[413, 705, 354]
[414, 705, 355]
[415, 705, 356]
[416, 705, 357]
[417, 705, 358]
[418, 705, 359]
[419, 705, 360]
[401, 362]
[402, 724, 363]
[403, 724, 364]
[404, 724, 365]
[405, 724, 366]
[406, 724, 367]
[407, 724, 368]
[408, 724, 369]
[409, 724, 370]
[410, 724, 371]
[411, 724, 372]
[412, 724, 373]
[413, 724, 374]
[414, 724, 375]
[415, 724, 376]
[416, 724, 377]
[417, 724, 378]
[418, 724, 379]
[419, 724, 380]
[401, 382]
[402, 743, 383]
[403, 743, 384]
[404, 743, 385]
[405, 743, 386]
[406, 743, 387]
[407, 743, 388]
[408, 743, 389]
[409, 743, 390]
[410, 743, 391]
[411, 743, 392]
[412, 743, 393]
[413, 743, 394]
[414, 743, 395]
[415, 743, 396]
[416, 743, 397]
[417, 743, 398]
[418, 743, 399]
[419, 743, 400]
[421]
[762, 422]
[762, 423]
[762, 424]
[762, 425]
[762, 426]
[762, 427]
[762, 428]
[762, 429]
[762, 430]
[762, 431]
[762, 432]
[762, 433]
[762, 434]
[762, 435]
[762, 436]
[762, 437]
[762, 438]
[762, 440]
[763, 780, 441]
[764, 780, 442]
[765, 780, 443]
[766, 780, 444]
[767, 780, 445]
[768, 780, 446]
[769, 780, 447]
[770, 780, 448]
[771, 780, 449]
[772, 780, 450]
[773, 780, 451]
[774, 780, 452]
[775, 780, 453]
[776, 780, 454]
[777, 780, 455]
[778, 780, 456]
[779, 780, 457]
[762, 459]
[763, 798, 460]
[764, 798, 461]
[765, 798, 462]
[766, 798, 463]
[767, 798, 464]
[768, 798, 465]
[769, 798, 466]
[770, 798, 467]
[771, 798, 468]
[772, 798, 469]
[773, 798, 470]
[774, 798, 471]
[775, 798, 472]
[776, 798, 473]
[777, 798, 474]
[778, 798, 475]
[779, 798, 476]
[762, 478]
[763, 816, 479]
[764, 816, 480]
[765, 816, 481]
[766, 816, 482]
[767, 816, 483]
[768, 816, 484]
[769, 816, 485]
[770, 816, 486]
[771, 816, 487]
[772, 816, 488]
[773, 816, 489]
[774, 816, 490]
[775, 816, 491]
[776, 816, 492]
[777, 816, 493]
[778, 816, 494]
[779, 816, 495]
[762, 497]
[763, 834, 498]
[764, 834, 499]
[765, 834, 500]
[766, 834, 501]
[767, 834, 502]
[768, 834, 503]
[769, 834, 504]
[770, 834, 505]
[771, 834, 506]
[772, 834, 507]
[773, 834, 508]
[774, 834, 509]
[775, 834, 510]
[776, 834, 511]
[777, 834, 512]
[778, 834, 513]
[779, 834, 514]
[762, 516]
[763, 852, 517]
[764, 852, 518]
[765, 852, 519]
[766, 852, 520]
[767, 852, 521]
[768, 852, 522]
[769, 852, 523]
[770, 852, 524]
[771, 852, 525]
[772, 852, 526]
[773, 852, 527]
[774, 852, 528]
[775, 852, 529]
[776, 852, 530]
[777, 852, 531]
[778, 852, 532]
[779, 852, 533]
[762, 535]
[763, 870, 536]
[764, 870, 537]
[765, 870, 538]
[766, 870, 539]
[767, 870, 540]
[768, 870, 541]
[769, 870, 542]
[770, 870, 543]
[771, 870, 544]
[772, 870, 545]
[773, 870, 546]
[774, 870, 547]
[775, 870, 548]
[776, 870, 549]
[777, 870, 550]
[778, 870, 551]
[779, 870, 552]
[762, 554]
[763, 888, 555]
[764, 888, 556]
[765, 888, 557]
[766, 888, 558]
[767, 888, 559]
[768, 888, 560]
[769, 888, 561]
[770, 888, 562]
[771, 888, 563]
[772, 888, 564]
[773, 888, 565]
[774, 888, 566]
[775, 888, 567]
[776, 888, 568]
[777, 888, 569]
[778, 888, 570]
[779, 888, 571]
[762, 573]
[763, 906, 574]
[764, 906, 575]
[765, 906, 576]
[766, 906, 577]
[767, 906, 578]
[768, 906, 579]
[769, 906, 580]
[770, 906, 581]
[771, 906, 582]
[772, 906, 583]
[773, 906, 584]
[774, 906, 585]
[775, 906, 586]
[776, 906, 587]
[777, 906, 588]
[778, 906, 589]
[779, 906, 590]
[762, 592]
[763, 924, 593]
[764, 924, 594]
[765, 924, 595]
[766, 924, 596]
[767, 924, 597]
[768, 924, 598]
[769, 924, 599]
[770, 924, 600]
[771, 924, 601]
[772, 924, 602]
[773, 924, 603]
[774, 924, 604]
[775, 924, 605]
[776, 924, 606]
[777, 924, 607]
[778, 924, 608]
[779, 924, 609]
[762, 611]
[763, 942, 612]
[764, 942, 613]
[765, 942, 614]
[766, 942, 615]
[767, 942, 616]
[768, 942, 617]
[769, 942, 618]
[770, 942, 619]
[771, 942, 620]
[772, 942, 621]
[773, 942, 622]
[774, 942, 623]
[775, 942, 624]
[776, 942, 625]
[777, 942, 626]
[778, 942, 627]
[779, 942, 628]
[762, 630]
[763, 960, 631]
[764, 960, 632]
[765, 960, 633]
[766, 960, 634]
[767, 960, 635]
[768, 960, 636]
[769, 960, 637]
[770, 960, 638]
[771, 960, 639]
[772, 960, 640]
[773, 960, 641]
[774, 960, 642]
[775, 960, 643]
[776, 960, 644]
[777, 960, 645]
[778, 960, 646]
[779, 960, 647]
[762, 649]
[763, 978, 650]
[764, 978, 651]
[765, 978, 652]
[766, 978, 653]
[767, 978, 654]
[768, 978, 655]
[769, 978, 656]
[770, 978, 657]
[771, 978, 658]
[772, 978, 659]
[773, 978, 660]
[774, 978, 661]
[775, 978, 662]
[776, 978, 663]
[777, 978, 664]
[778, 978, 665]
[779, 978, 666]
[762, 668]
[763, 996, 669]
[764, 996, 670]
[765, 996, 671]
[766, 996, 672]
[767, 996, 673]
[768, 996, 674]
[769, 996, 675]
[770, 996, 676]
[771, 996, 677]
[772, 996, 678]
[773, 996, 679]
[774, 996, 680]
[775, 996, 681]
[776, 996, 682]
[777, 996, 683]
[778, 996, 684]
[779, 996, 685]
[762, 687]
[763, 1014, 688]
[764, 1014, 689]
[765, 1014, 690]
[766, 1014, 691]
[767, 1014, 692]
[768, 1014, 693]
[769, 1014, 694]
[770, 1014, 695]
[771, 1014, 696]
[772, 1014, 697]
[773, 1014, 698]
[774, 1014, 699]
[775, 1014, 700]
[776, 1014, 701]
[777, 1014, 702]
[778, 1014, 703]
[779, 1014, 704]
[762, 706]
[763, 1032, 707]
[764, 1032, 708]
[765, 1032, 709]
[766, 1032, 710]
[767, 1032, 711]
[768, 1032, 712]
[769, 1032, 713]
[770, 1032, 714]
[771, 1032, 715]
[772, 1032, 716]
[773, 1032, 717]
[774, 1032, 718]
[775, 1032, 719]
[776, 1032, 720]
[777, 1032, 721]
[778, 1032, 722]
[779, 1032, 723]
[762, 725]
[763, 1050, 726]
[764, 1050, 727]
[765, 1050, 728]
[766, 1050, 729]
[767, 1050, 730]
[768, 1050, 731]
[769, 1050, 732]
[770, 1050, 733]
[771, 1050, 734]
[772, 1050, 735]
[773, 1050, 736]
[774, 1050, 737]
[775, 1050, 738]
[776, 1050, 739]
[777, 1050, 740]
[778, 1050, 741]
[779, 1050, 742]
[762, 744]
[763, 1068, 745]
[764, 1068, 746]
[765, 1068, 747]
[766, 1068, 748]
[767, 1068, 749]
[768, 1068, 750]
[769, 1068, 751]
[770, 1068, 752]
[771, 1068, 753]
[772, 1068, 754]
[773, 1068, 755]
[774, 1068, 756]
[775, 1068, 757]
[776, 1068, 758]
[777, 1068, 759]
[778, 1068, 760]
[779, 1068, 761]
[781]
[1086, 782]
[1086, 783]
[1086, 784]
[1086, 785]
[1086, 786]
[1086, 787]
[1086, 788]
[1086, 789]
[1086, 790]
[1086, 791]
[1086, 792]
[1086, 793]
[1086, 794]
[1086, 795]
[1086, 796]
[1086, 797]
[1086, 799]
[1087, 1103, 800]
[1088, 1103, 801]
[1089, 1103, 802]
[1090, 1103, 803]
[1091, 1103, 804]
[1092, 1103, 805]
[1093, 1103, 806]
[1094, 1103, 807]
[1095, 1103, 808]
[1096, 1103, 809]
[1097, 1103, 810]
[1098, 1103, 811]
[1099, 1103, 812]
[1100, 1103, 813]
[1101, 1103, 814]
[1102, 1103, 815]
[1086, 817]
[1087, 1120, 818]
[1088, 1120, 819]
[1089, 1120, 820]
[1090, 1120, 821]
[1091, 1120, 822]
[1092, 1120, 823]
[1093, 1120, 824]
[1094, 1120, 825]
[1095, 1120, 826]
[1096, 1120, 827]
[1097, 1120, 828]
[1098, 1120, 829]
[1099, 1120, 830]
[1100, 1120, 831]
[1101, 1120, 832]
[1102, 1120, 833]
[1086, 835]
[1087, 1137, 836]
[1088, 1137, 837]
[1089, 1137, 838]
[1090, 1137, 839]
[1091, 1137, 840]
[1092, 1137, 841]
[1093, 1137, 842]
[1094, 1137, 843]
[1095, 1137, 844]
[1096, 1137, 845]
[1097, 1137, 846]
[1098, 1137, 847]
[1099, 1137, 848]
[1100, 1137, 849]
[1101, 1137, 850]
[1102, 1137, 851]
[1086, 853]
[1087, 1154, 854]
[1088, 1154, 855]
[1089, 1154, 856]
[1090, 1154, 857]
[1091, 1154, 858]
[1092, 1154, 859]
[1093, 1154, 860]
[1094, 1154, 861]
[1095, 1154, 862]
[1096, 1154, 863]
[1097, 1154, 864]
[1098, 1154, 865]
[1099, 1154, 866]
[1100, 1154, 867]
[1101, 1154, 868]
[1102, 1154, 869]
[1086, 871]
[1087, 1171, 872]
[1088, 1171, 873]
[1089, 1171, 874]
[1090, 1171, 875]
[1091, 1171, 876]
[1092, 1171, 877]
[1093, 1171, 878]
[1094, 1171, 879]
[1095, 1171, 880]
[1096, 1171, 881]
[1097, 1171, 882]
[1098, 1171, 883]
[1099, 1171, 884]
[1100, 1171, 885]
[1101, 1171, 886]
[1102, 1171, 887]
[1086, 889]
[1087, 1188, 890]
[1088, 1188, 891]
[1089, 1188, 892]
[1090, 1188, 893]
[1091, 1188, 894]
[1092, 1188, 895]
[1093, 1188, 896]
[1094, 1188, 897]
[1095, 1188, 898]
[1096, 1188, 899]
[1097, 1188, 900]
[1098, 1188, 901]
[1099, 1188, 902]
[1100, 1188, 903]
[1101, 1188, 904]
[1102, 1188, 905]
[1086, 907]
[1087, 1205, 908]
[1088, 1205, 909]
[1089, 1205, 910]
[1090, 1205, 911]
[1091, 1205, 912]
[1092, 1205, 913]
[1093, 1205, 914]
[1094, 1205, 915]
[1095, 1205, 916]
[1096, 1205, 917]
[1097, 1205, 918]
[1098, 1205, 919]
[1099, 1205, 920]
[1100, 1205, 921]
[1101, 1205, 922]
[1102, 1205, 923]
[1086, 925]
[1087, 1222, 926]
[1088, 1222, 927]
[1089, 1222, 928]
[1090, 1222, 929]
[1091, 1222, 930]
[1092, 1222, 931]
[1093, 1222, 932]
[1094, 1222, 933]
[1095, 1222, 934]
[1096, 1222, 935]
[1097, 1222, 936]
[1098, 1222, 937]
[1099, 1222, 938]
[1100, 1222, 939]
[1101, 1222, 940]
[1102, 1222, 941]
[1086, 943]
[1087, 1239, 944]
[1088, 1239, 945]
[1089, 1239, 946]
[1090, 1239, 947]
[1091, 1239, 948]
[1092, 1239, 949]
[1093, 1239, 950]
[1094, 1239, 951]
[1095, 1239, 952]
[1096, 1239, 953]
[1097, 1239, 954]
[1098, 1239, 955]
[1099, 1239, 956]
[1100, 1239, 957]
[1101, 1239, 958]
[1102, 1239, 959]
[1086, 961]
[1087, 1256, 962]
[1088, 1256, 963]
[1089, 1256, 964]
[1090, 1256, 965]
[1091, 1256, 966]
[1092, 1256, 967]
[1093, 1256, 968]
[1094, 1256, 969]
[1095, 1256, 970]
[1096, 1256, 971]
[1097, 1256, 972]
[1098, 1256, 973]
[1099, 1256, 974]
[1100, 1256, 975]
[1101, 1256, 976]
[1102, 1256, 977]
[1086, 979]
[1087, 1273, 980]
[1088, 1273, 981]
[1089, 1273, 982]
[1090, 1273, 983]
[1091, 1273, 984]
[1092, 1273, 985]
[1093, 1273, 986]
[1094, 1273, 987]
[1095, 1273, 988]
[1096, 1273, 989]
[1097, 1273, 990]
[1098, 1273, 991]
[1099, 1273, 992]
[1100, 1273, 993]
[1101, 1273, 994]
[1102, 1273, 995]
[1086, 997]
[1087, 1290, 998]
[1088, 1290, 999]
[1089, 1290, 1000]
[1090, 1290, 1001]
[1091, 1290, 1002]
[1092, 1290, 1003]
[1093, 1290, 1004]
[1094, 1290, 1005]
[1095, 1290, 1006]
[1096, 1290, 1007]
[1097, 1290, 1008]
[1098, 1290, 1009]
[1099, 1290, 1010]
[1100, 1290, 1011]
[1101, 1290, 1012]
[1102, 1290, 1013]
[1086, 1015]
[1087, 1307, 1016]
[1088, 1307, 1017]
[1089, 1307, 1018]
[1090, 1307, 1019]
[1091, 1307, 1020]
[1092, 1307, 1021]
[1093, 1307, 1022]
[1094, 1307, 1023]
[1095, 1307, 1024]
[1096, 1307, 1025]
[1097, 1307, 1026]
[1098, 1307, 1027]
[1099, 1307, 1028]
[1100, 1307, 1029]
[1101, 1307, 1030]
[1102, 1307, 1031]
[1086, 1033]
[1087, 1324, 1034]
[1088, 1324, 1035]
[1089, 1324, 1036]
[1090, 1324, 1037]
[1091, 1324, 1038]
[1092, 1324, 1039]
[1093, 1324, 1040]
[1094, 1324, 1041]
[1095, 1324, 1042]
[1096, 1324, 1043]
[1097, 1324, 1044]
[1098, 1324, 1045]
[1099, 1324, 1046]
[1100, 1324, 1047]
[1101, 1324, 1048]
[1102, 1324, 1049]
[1086, 1051]
[1087, 1341, 1052]
[1088, 1341, 1053]
[1089, 1341, 1054]
[1090, 1341, 1055]
[1091, 1341, 1056]
[1092, 1341, 1057]
[1093, 1341, 1058]
[1094, 1341, 1059]
[1095, 1341, 1060]
[1096, 1341, 1061]
[1097, 1341, 1062]
[1098, 1341, 1063]
[1099, 1341, 1064]
[1100, 1341, 1065]
[1101, 1341, 1066]
[1102, 1341, 1067]
[1086, 1069]
[1087, 1358, 1070]
[1088, 1358, 1071]
[1089, 1358, 1072]
[1090, 1358, 1073]
[1091, 1358, 1074]
[1092, 1358, 1075]
[1093, 1358, 1076]
[1094, 1358, 1077]
[1095, 1358, 1078]
[1096, 1358, 1079]
[1097, 1358, 1080]
[1098, 1358, 1081]
[1099, 1358, 1082]
[1100, 1358, 1083]
[1101, 1358, 1084]
[1102, 1358, 1085]
[1104]
[1375, 1105]
[1375, 1106]
[1375, 1107]
[1375, 1108]
[1375, 1109]
[1375, 1110]
[1375, 1111]
[1375, 1112]
[1375, 1113]
[1375, 1114]
[1375, 1115]
[1375, 1116]
[1375, 1117]
[1375, 1118]
[1375, 1119]
[1375, 1121]
[1376, 1391, 1122]
[1377, 1391, 1123]
[1378, 1391, 1124]
[1379, 1391, 1125]
[1380, 1391, 1126]
[1381, 1391, 1127]
[1382, 1391, 1128]
[1383, 1391, 1129]
[1384, 1391, 1130]
[1385, 1391, 1131]
[1386, 1391, 1132]
[1387, 1391, 1133]
[1388, 1391, 1134]
[1389, 1391, 1135]
[1390, 1391, 1136]
[1375, 1138]
[1376, 1407, 1139]
[1377, 1407, 1140]
[1378, 1407, 1141]
[1379, 1407, 1142]
[1380, 1407, 1143]
[1381, 1407, 1144]
[1382, 1407, 1145]
[1383, 1407, 1146]
[1384, 1407, 1147]
[1385, 1407, 1148]
[1386, 1407, 1149]
[1387, 1407, 1150]
[1388, 1407, 1151]
[1389, 1407, 1152]
[1390, 1407, 1153]
[1375, 1155]
[1376, 1423, 1156]
[1377, 1423, 1157]
[1378, 1423, 1158]
[1379, 1423, 1159]
[1380, 1423, 1160]
[1381, 1423, 1161]
[1382, 1423, 1162]
[1383, 1423, 1163]
[1384, 1423, 1164]
[1385, 1423, 1165]
[1386, 1423, 1166]
[1387, 1423, 1167]
[1388, 1423, 1168]
[1389, 1423, 1169]
[1390, 1423, 1170]
[1375, 1172]
[1376, 1439, 1173]
[1377, 1439, 1174]
[1378, 1439, 1175]
[1379, 1439, 1176]
[1380, 1439, 1177]
[1381, 1439, 1178]
[1382, 1439, 1179]
[1383, 1439, 1180]
[1384, 1439, 1181]
[1385, 1439, 1182]
[1386, 1439, 1183]
[1387, 1439, 1184]
[1388, 1439, 1185]
[1389, 1439, 1186]
[1390, 1439, 1187]
[1375, 1189]
[1376, 1455, 1190]
[1377, 1455, 1191]
[1378, 1455, 1192]
[1379, 1455, 1193]
[1380, 1455, 1194]
[1381, 1455, 1195]
[1382, 1455, 1196]
[1383, 1455, 1197]
[1384, 1455, 1198]
[1385, 1455, 1199]
[1386, 1455, 1200]
[1387, 1455, 1201]
[1388, 1455, 1202]
[1389, 1455, 1203]
[1390, 1455, 1204]
[1375, 1206]
[1376, 1471, 1207]
[1377, 1471, 1208]
[1378, 1471, 1209]
[1379, 1471, 1210]
[1380, 1471, 1211]
[1381, 1471, 1212]
[1382, 1471, 1213]
[1383, 1471, 1214]
[1384, 1471, 1215]
[1385, 1471, 1216]
[1386, 1471, 1217]
[1387, 1471, 1218]
[1388, 1471, 1219]
[1389, 1471, 1220]
[1390, 1471, 1221]
[1375, 1223]
[1376, 1487, 1224]
[1377, 1487, 1225]
[1378, 1487, 1226]
[1379, 1487, 1227]
[1380, 1487, 1228]
[1381, 1487, 1229]
[1382, 1487, 1230]
[1383, 1487, 1231]
[1384, 1487, 1232]
[1385, 1487, 1233]
[1386, 1487, 1234]
[1387, 1487, 1235]
[1388, 1487, 1236]
[1389, 1487, 1237]
[1390, 1487, 1238]
[1375, 1240]
[1376, 1503, 1241]
[1377, 1503, 1242]
[1378, 1503, 1243]
[1379, 1503, 1244]
[1380, 1503, 1245]
[1381, 1503, 1246]
[1382, 1503, 1247]
[1383, 1503, 1248]
[1384, 1503, 1249]
[1385, 1503, 1250]
[1386, 1503, 1251]
[1387, 1503, 1252]
[1388, 1503, 1253]
[1389, 1503, 1254]
[1390, 1503, 1255]
[1375, 1257]
[1376, 1519, 1258]
[1377, 1519, 1259]
[1378, 1519, 1260]
[1379, 1519, 1261]
[1380, 1519, 1262]
[1381, 1519, 1263]
[1382, 1519, 1264]
[1383, 1519, 1265]
[1384, 1519, 1266]
[1385, 1519, 1267]
[1386, 1519, 1268]
[1387, 1519, 1269]
[1388, 1519, 1270]
[1389, 1519, 1271]
[1390, 1519, 1272]
[1375, 1274]
[1376, 1535, 1275]
[1377, 1535, 1276]
[1378, 1535, 1277]
[1379, 1535, 1278]
[1380, 1535, 1279]
[1381, 1535, 1280]
[1382, 1535, 1281]
[1383, 1535, 1282]
[1384, 1535, 1283]
[1385, 1535, 1284]
[1386, 1535, 1285]
[1387, 1535, 1286]
[1388, 1535, 1287]
[1389, 1535, 1288]
[1390, 1535, 1289]
[1375, 1291]
[1376, 1551, 1292]
[1377, 1551, 1293]
[1378, 1551, 1294]
[1379, 1551, 1295]
[1380, 1551, 1296]
[1381, 1551, 1297]
[1382, 1551, 1298]
[1383, 1551, 1299]
[1384, 1551, 1300]
[1385, 1551, 1301]
[1386, 1551, 1302]
[1387, 1551, 1303]
[1388, 1551, 1304]
[1389, 1551, 1305]
[1390, 1551, 1306]
[1375, 1308]
[1376, 1567, 1309]
[1377, 1567, 1310]
[1378, 1567, 1311]
[1379, 1567, 1312]
[1380, 1567, 1313]
[1381, 1567, 1314]
[1382, 1567, 1315]
[1383, 1567, 1316]
[1384, 1567, 1317]
[1385, 1567, 1318]
[1386, 1567, 1319]
[1387, 1567, 1320]
[1388, 1567, 1321]
[1389, 1567, 1322]
[1390, 1567, 1323]
[1375, 1325]
[1376, 1583, 1326]
[1377, 1583, 1327]
[1378, 1583, 1328]
[1379, 1583, 1329]
[1380, 1583, 1330]
[1381, 1583, 1331]
[1382, 1583, 1332]
[1383, 1583, 1333]
[1384, 1583, 1334]
[1385, 1583, 1335]
[1386, 1583, 1336]
[1387, 1583, 1337]
[1388, 1583, 1338]
[1389, 1583, 1339]
[1390, 1583, 1340]
[1375, 1342]
[1376, 1599, 1343]
[1377, 1599, 1344]
[1378, 1599, 1345]
[1379, 1599, 1346]
[1380, 1599, 1347]
[1381, 1599, 1348]
[1382, 1599, 1349]
[1383, 1599, 1350]
[1384, 1599, 1351]
[1385, 1599, 1352]
[1386, 1599, 1353]
[1387, 1599, 1354]
[1388, 1599, 1355]
[1389, 1599, 1356]
[1390, 1599, 1357]
[1375, 1359]
[1376, 1615, 1360]
[1377, 1615, 1361]
[1378, 1615, 1362]
[1379, 1615, 1363]
[1380, 1615, 1364]
[1381, 1615, 1365]
[1382, 1615, 1366]
[1383, 1615, 1367]
[1384, 1615, 1368]
[1385, 1615, 1369]
[1386, 1615, 1370]
[1387, 1615, 1371]
[1388, 1615, 1372]
[1389, 1615, 1373]
[1390, 1615, 1374]
[1392]
[1631, 1393]
[1631, 1394]
[1631, 1395]
[1631, 1396]
[1631, 1397]
[1631, 1398]
[1631, 1399]
[1631, 1400]
[1631, 1401]
[1631, 1402]
[1631, 1403]
[1631, 1404]
[1631, 1405]
[1631, 1406]
[1631, 1408]
[1632, 1646, 1409]
[1633, 1646, 1410]
[1634, 1646, 1411]
[1635, 1646, 1412]
[1636, 1646, 1413]
[1637, 1646, 1414]
[1638, 1646, 1415]
[1639, 1646, 1416]
[1640, 1646, 1417]
[1641, 1646, 1418]
[1642, 1646, 1419]
[1643, 1646, 1420]
[1644, 1646, 1421]
[1645, 1646, 1422]
[1631, 1424]
[1632, 1661, 1425]
[1633, 1661, 1426]
[1634, 1661, 1427]
[1635, 1661, 1428]
[1636, 1661, 1429]
[1637, 1661, 1430]
[1638, 1661, 1431]
[1639, 1661, 1432]
[1640, 1661, 1433]
[1641, 1661, 1434]
[1642, 1661, 1435]
[1643, 1661, 1436]
[1644, 1661, 1437]
[1645, 1661, 1438]
[1631, 1440]
[1632, 1676, 1441]
[1633, 1676, 1442]
[1634, 1676, 1443]
[1635, 1676, 1444]
[1636, 1676, 1445]
[1637, 1676, 1446]
[1638, 1676, 1447]
[1639, 1676, 1448]
[1640, 1676, 1449]
[1641, 1676, 1450]
[1642, 1676, 1451]
[1643, 1676, 1452]
[1644, 1676, 1453]
[1645, 1676, 1454]
[1631, 1456]
[1632, 1691, 1457]
[1633, 1691, 1458]
[1634, 1691, 1459]
[1635, 1691, 1460]
[1636, 1691, 1461]
[1637, 1691, 1462]
[1638, 1691, 1463]
[1639, 1691, 1464]
[1640, 1691, 1465]
[1641, 1691, 1466]
[1642, 1691, 1467]
[1643, 1691, 1468]
[1644, 1691, 1469]
[1645, 1691, 1470]
[1631, 1472]
[1632, 1706, 1473]
[1633, 1706, 1474]
[1634, 1706, 1475]
[1635, 1706, 1476]
[1636, 1706, 1477]
[1637, 1706, 1478]
[1638, 1706, 1479]
[1639, 1706, 1480]
[1640, 1706, 1481]
[1641, 1706, 1482]
[1642, 1706, 1483]
[1643, 1706, 1484]
[1644, 1706, 1485]
[1645, 1706, 1486]
[1631, 1488]
[1632, 1721, 1489]
[1633, 1721, 1490]
[1634, 1721, 1491]
[1635, 1721, 1492]
[1636, 1721, 1493]
[1637, 1721, 1494]
[1638, 1721, 1495]
[1639, 1721, 1496]
[1640, 1721, 1497]
[1641, 1721, 1498]
[1642, 1721, 1499]
[1643, 1721, 1500]
[1644, 1721, 1501]
[1645, 1721, 1502]
[1631, 1504]
[1632, 1736, 1505]
[1633, 1736, 1506]
[1634, 1736, 1507]
[1635, 1736, 1508]
[1636, 1736, 1509]
[1637, 1736, 1510]
[1638, 1736, 1511]
[1639, 1736, 1512]
[1640, 1736, 1513]
[1641, 1736, 1514]
[1642, 1736, 1515]
[1643, 1736, 1516]
[1644, 1736, 1517]
[1645, 1736, 1518]
[1631, 1520]
[1632, 1751, 1521]
[1633, 1751, 1522]
[1634, 1751, 1523]
[1635, 1751, 1524]
[1636, 1751, 1525]
[1637, 1751, 1526]
[1638, 1751, 1527]
[1639, 1751, 1528]
[1640, 1751, 1529]
[1641, 1751, 1530]
[1642, 1751, 1531]
[1643, 1751, 1532]
[1644, 1751, 1533]
[1645, 1751, 1534]
[1631, 1536]
[1632, 1766, 1537]
[1633, 1766, 1538]
[1634, 1766, 1539]
[1635, 1766, 1540]
[1636, 1766, 1541]
[1637, 1766, 1542]
[1638, 1766, 1543]
[1639, 1766, 1544]
[1640, 1766, 1545]
[1641, 1766, 1546]
[1642, 1766, 1547]
[1643, 1766, 1548]
[1644, 1766, 1549]
[1645, 1766, 1550]
[1631, 1552]
[1632, 1781, 1553]
[1633, 1781, 1554]
[1634, 1781, 1555]
[1635, 1781, 1556]
[1636, 1781, 1557]
[1637, 1781, 1558]
[1638, 1781, 1559]
[1639, 1781, 1560]
[1640, 1781, 1561]
[1641, 1781, 1562]
[1642, 1781, 1563]
[1643, 1781, 1564]
[1644, 1781, 1565]
[1645, 1781, 1566]
[1631, 1568]
[1632, 1796, 1569]
[1633, 1796, 1570]
[1634, 1796, 1571]
[1635, 1796, 1572]
[1636, 1796, 1573]
[1637, 1796, 1574]
[1638, 1796, 1575]
[1639, 1796, 1576]
[1640, 1796, 1577]
[1641, 1796, 1578]
[1642, 1796, 1579]
[1643, 1796, 1580]
[1644, 1796, 1581]
[1645, 1796, 1582]
[1631, 1584]
[1632, 1811, 1585]
[1633, 1811, 1586]
[1634, 1811, 1587]
[1635, 1811, 1588]
[1636, 1811, 1589]
[1637, 1811, 1590]
[1638, 1811, 1591]
[1639, 1811, 1592]
[1640, 1811, 1593]
[1641, 1811, 1594]
[1642, 1811, 1595]
[1643, 1811, 1596]
[1644, 1811, 1597]
[1645, 1811, 1598]
[1631, 1600]
[1632, 1826, 1601]
[1633, 1826, 1602]
[1634, 1826, 1603]
[1635, 1826, 1604]
[1636, 1826, 1605]
[1637, 1826, 1606]
[1638, 1826, 1607]
[1639, 1826, 1608]
[1640, 1826, 1609]
[1641, 1826, 1610]
[1642, 1826, 1611]
[1643, 1826, 1612]
[1644, 1826, 1613]
[1645, 1826, 1614]
[1631, 1616]
[1632, 1841, 1617]
[1633, 1841, 1618]
[1634, 1841, 1619]
[1635, 1841, 1620]
[1636, 1841, 1621]
[1637, 1841, 1622]
[1638, 1841, 1623]
[1639, 1841, 1624]
[1640, 1841, 1625]
[1641, 1841, 1626]
[1642, 1841, 1627]
[1643, 1841, 1628]
[1644, 1841, 1629]
[1645, 1841, 1630]
[1647]
[1856, 1648]
[1856, 1649]
[1856, 1650]
[1856, 1651]
[1856, 1652]
[1856, 1653]
[1856, 1654]
[1856, 1655]
[1856, 1656]
[1856, 1657]
[1856, 1658]
[1856, 1659]
[1856, 1660]
[1856, 1662]
[1857, 1870, 1663]
[1858, 1870, 1664]
[1859, 1870, 1665]
[1860, 1870, 1666]
[1861, 1870, 1667]
[1862, 1870, 1668]
[1863, 1870, 1669]
[1864, 1870, 1670]
[1865, 1870, 1671]
[1866, 1870, 1672]
[1867, 1870, 1673]
[1868, 1870, 1674]
[1869, 1870, 1675]
[1856, 1677]
[1857, 1884, 1678]
[1858, 1884, 1679]
[1859, 1884, 1680]
[1860, 1884, 1681]
[1861, 1884, 1682]
[1862, 1884, 1683]
[1863, 1884, 1684]
[1864, 1884, 1685]
[1865, 1884, 1686]
[1866, 1884, 1687]
[1867, 1884, 1688]
[1868, 1884, 1689]
[1869, 1884, 1690]
[1856, 1692]
[1857, 1898, 1693]
[1858, 1898, 1694]
[1859, 1898, 1695]
[1860, 1898, 1696]
[1861, 1898, 1697]
[1862, 1898, 1698]
[1863, 1898, 1699]
[1864, 1898, 1700]
[1865, 1898, 1701]
[1866, 1898, 1702]
[1867, 1898, 1703]
[1868, 1898, 1704]
[1869, 1898, 1705]
[1856, 1707]
[1857, 1912, 1708]
[1858, 1912, 1709]
[1859, 1912, 1710]
[1860, 1912, 1711]
[1861, 1912, 1712]
[1862, 1912, 1713]
[1863, 1912, 1714]
[1864, 1912, 1715]
[1865, 1912, 1716]
[1866, 1912, 1717]
[1867, 1912, 1718]
[1868, 1912, 1719]
[1869, 1912, 1720]
[1856, 1722]
[1857, 1926, 1723]
[1858, 1926, 1724]
[1859, 1926, 1725]
[1860, 1926, 1726]
[1861, 1926, 1727]
[1862, 1926, 1728]
[1863, 1926, 1729]
[1864, 1926, 1730]
[1865, 1926, 1731]
[1866, 1926, 1732]
[1867, 1926, 1733]
[1868, 1926, 1734]
[1869, 1926, 1735]
[1856, 1737]
[1857, 1940, 1738]
[1858, 1940, 1739]
[1859, 1940, 1740]
[1860, 1940, 1741]
[1861, 1940, 1742]
[1862, 1940, 1743]
[1863, 1940, 1744]
[1864, 1940, 1745]
[1865, 1940, 1746]
[1866, 1940, 1747]
[1867, 1940, 1748]
[1868, 1940, 1749]
[1869, 1940, 1750]
[1856, 1752]
[1857, 1954, 1753]
[1858, 1954, 1754]
[1859, 1954, 1755]
[1860, 1954, 1756]
[1861, 1954, 1757]
[1862, 1954, 1758]
[1863, 1954, 1759]
[1864, 1954, 1760]
[1865, 1954, 1761]
[1866, 1954, 1762]
[1867, 1954, 1763]
[1868, 1954, 1764]
[1869, 1954, 1765]
[1856, 1767]
[1857, 1968, 1768]
[1858, 1968, 1769]
[1859, 1968, 1770]
[1860, 1968, 1771]
[1861, 1968, 1772]
[1862, 1968, 1773]
[1863, 1968, 1774]
[1864, 1968, 1775]
[1865, 1968, 1776]
[1866, 1968, 1777]
[1867, 1968, 1778]
[1868, 1968, 1779]
[1869, 1968, 1780]
[1856, 1782]
[1857, 1982, 1783]
[1858, 1982, 1784]
[1859, 1982, 1785]
[1860, 1982, 1786]
[1861, 1982, 1787]
[1862, 1982, 1788]
[1863, 1982, 1789]
[1864, 1982, 1790]
[1865, 1982, 1791]
[1866, 1982, 1792]
[1867, 1982, 1793]
[1868, 1982, 1794]
[1869, 1982, 1795]
[1856, 1797]
[1857, 1996, 1798]
[1858, 1996, 1799]
[1859, 1996, 1800]
[1860, 1996, 1801]
[1861, 1996, 1802]
[1862, 1996, 1803]
[1863, 1996, 1804]
[1864, 1996, 1805]
[1865, 1996, 1806]
[1866, 1996, 1807]
[1867, 1996, 1808]
[1868, 1996, 1809]
[1869, 1996, 1810]
[1856, 1812]
[1857, 2010, 1813]
[1858, 2010, 1814]
[1859, 2010, 1815]
[1860, 2010, 1816]
[1861, 2010, 1817]
[1862, 2010, 1818]
[1863, 2010, 1819]
[1864, 2010, 1820]
[1865, 2010, 1821]
[1866, 2010, 1822]
[1867, 2010, 1823]
[1868, 2010, 1824]
[1869, 2010, 1825]
[1856, 1827]
[1857, 2024, 1828]
[1858, 2024, 1829]
[1859, 2024, 1830]
[1860, 2024, 1831]
[1861, 2024, 1832]
[1862, 2024, 1833]
[1863, 2024, 1834]
[1864, 2024, 1835]
[1865, 2024, 1836]
[1866, 2024, 1837]
[1867, 2024, 1838]
[1868, 2024, 1839]
[1869, 2024, 1840]
[1856, 1842]
[1857, 2038, 1843]
[1858, 2038, 1844]
[1859, 2038, 1845]
[1860, 2038, 1846]
[1861, 2038, 1847]
[1862, 2038, 1848]
[1863, 2038, 1849]
[1864, 2038, 1850]
[1865, 2038, 1851]
[1866, 2038, 1852]
[1867, 2038, 1853]
[1868, 2038, 1854]
[1869, 2038, 1855]
[1871]
[2052, 1872]
[2052, 1873]
[2052, 1874]
[2052, 1875]
[2052, 1876]
[2052, 1877]
[2052, 1878]
[2052, 1879]
[2052, 1880]
[2052, 1881]
[2052, 1882]
[2052, 1883]
[2052, 1885]
[2053, 2065, 1886]
[2054, 2065, 1887]
[2055, 2065, 1888]
[2056, 2065, 1889]
[2057, 2065, 1890]
[2058, 2065, 1891]
[2059, 2065, 1892]
[2060, 2065, 1893]
[2061, 2065, 1894]
[2062, 2065, 1895]
[2063, 2065, 1896]
[2064, 2065, 1897]
[2052, 1899]
[2053, 2078, 1900]
[2054, 2078, 1901]
[2055, 2078, 1902]
[2056, 2078, 1903]
[2057, 2078, 1904]
[2058, 2078, 1905]
[2059, 2078, 1906]
[2060, 2078, 1907]
[2061, 2078, 1908]
[2062, 2078, 1909]
[2063, 2078, 1910]
[2064, 2078, 1911]
[2052, 1913]
[2053, 2091, 1914]
[2054, 2091, 1915]
[2055, 2091, 1916]
[2056, 2091, 1917]
[2057, 2091, 1918]
[2058, 2091, 1919]
[2059, 2091, 1920]
[2060, 2091, 1921]
[2061, 2091, 1922]
[2062, 2091, 1923]
[2063, 2091, 1924]
[2064, 2091, 1925]
[2052, 1927]
[2053, 2104, 1928]
[2054, 2104, 1929]
[2055, 2104, 1930]
[2056, 2104, 1931]
[2057, 2104, 1932]
[2058, 2104, 1933]
[2059, 2104, 1934]
[2060, 2104, 1935]
[2061, 2104, 1936]
[2062, 2104, 1937]
[2063, 2104, 1938]
[2064, 2104, 1939]
[2052, 1941]
[2053, 2117, 1942]
[2054, 2117, 1943]
[2055, 2117, 1944]
[2056, 2117, 1945]
[2057, 2117, 1946]
[2058, 2117, 1947]
[2059, 2117, 1948]
[2060, 2117, 1949]
[2061, 2117, 1950]
[2062, 2117, 1951]
[2063, 2117, 1952]
[2064, 2117, 1953]
[2052, 1955]
[2053, 2130, 1956]
[2054, 2130, 1957]
[2055, 2130, 1958]
[2056, 2130, 1959]
[2057, 2130, 1960]
[2058, 2130, 1961]
[2059, 2130, 1962]
[2060, 2130, 1963]
[2061, 2130, 1964]
[2062, 2130, 1965]
[2063, 2130, 1966]
[2064, 2130, 1967]
[2052, 1969]
[2053, 2143, 1970]
[2054, 2143, 1971]
[2055, 2143, 1972]
[2056, 2143, 1973]
[2057, 2143, 1974]
[2058, 2143, 1975]
[2059, 2143, 1976]
[2060, 2143, 1977]
[2061, 2143, 1978]
[2062, 2143, 1979]
[2063, 2143, 1980]
[2064, 2143, 1981]
[2052, 1983]
[2053, 2156, 1984]
[2054, 2156, 1985]
[2055, 2156, 1986]
[2056, 2156, 1987]
[2057, 2156, 1988]
[2058, 2156, 1989]
[2059, 2156, 1990]
[2060, 2156, 1991]
[2061, 2156, 1992]
[2062, 2156, 1993]
[2063, 2156, 1994]
[2064, 2156, 1995]
[2052, 1997]
[2053, 2169, 1998]
[2054, 2169, 1999]
[2055, 2169, 2000]
[2056, 2169, 2001]
[2057, 2169, 2002]
[2058, 2169, 2003]
[2059, 2169, 2004]
[2060, 2169, 2005]
[2061, 2169, 2006]
[2062, 2169, 2007]
[2063, 2169, 2008]
[2064, 2169, 2009]
[2052, 2011]
[2053, 2182, 2012]
[2054, 2182, 2013]
[2055, 2182, 2014]
[2056, 2182, 2015]
[2057, 2182, 2016]
[2058, 2182, 2017]
[2059, 2182, 2018]
[2060, 2182, 2019]
[2061, 2182, 2020]
[2062, 2182, 2021]
[2063, 2182, 2022]
[2064, 2182, 2023]
[2052, 2025]
[2053, 2195, 2026]
[2054, 2195, 2027]
[2055, 2195, 2028]
[2056, 2195, 2029]
[2057, 2195, 2030]
[2058, 2195, 2031]
[2059, 2195, 2032]
[2060, 2195, 2033]
[2061, 2195, 2034]
[2062, 2195, 2035]
[2063, 2195, 2036]
[2064, 2195, 2037]
[2052, 2039]
[2053, 2208, 2040]
[2054, 2208, 2041]
[2055, 2208, 2042]
[2056, 2208, 2043]
[2057, 2208, 2044]
[2058, 2208, 2045]
[2059, 2208, 2046]
[2060, 2208, 2047]
[2061, 2208, 2048]
[2062, 2208, 2049]
[2063, 2208, 2050]
[2064, 2208, 2051]
[2066]
[2221, 2067]
[2221, 2068]
[2221, 2069]
[2221, 2070]
[2221, 2071]
[2221, 2072]
[2221, 2073]
[2221, 2074]
[2221, 2075]
[2221, 2076]
[2221, 2077]
[2221, 2079]
[2222, 2233, 2080]
[2223, 2233, 2081]
[2224, 2233, 2082]
[2225, 2233, 2083]
[2226, 2233, 2084]
[2227, 2233, 2085]
[2228, 2233, 2086]
[2229, 2233, 2087]
[2230, 2233, 2088]
[2231, 2233, 2089]
[2232, 2233, 2090]
[2221, 2092]
[2222, 2245, 2093]
[2223, 2245, 2094]
[2224, 2245, 2095]
[2225, 2245, 2096]
[2226, 2245, 2097]
[2227, 2245, 2098]
[2228, 2245, 2099]
[2229, 2245, 2100]
[2230, 2245, 2101]
[2231, 2245, 2102]
[2232, 2245, 2103]
[2221, 2105]
[2222, 2257, 2106]
[2223, 2257, 2107]
[2224, 2257, 2108]
[2225, 2257, 2109]
[2226, 2257, 2110]
[2227, 2257, 2111]
[2228, 2257, 2112]
[2229, 2257, 2113]
[2230, 2257, 2114]
[2231, 2257, 2115]
[2232, 2257, 2116]
[2221, 2118]
[2222, 2269, 2119]
[2223, 2269, 2120]
[2224, 2269, 2121]
[2225, 2269, 2122]
[2226, 2269, 2123]
[2227, 2269, 2124]
[2228, 2269, 2125]
[2229, 2269, 2126]
[2230, 2269, 2127]
[2231, 2269, 2128]
[2232, 2269, 2129]
[2221, 2131]
[2222, 2281, 2132]
[2223, 2281, 2133]
[2224, 2281, 2134]
[2225, 2281, 2135]
[2226, 2281, 2136]
[2227, 2281, 2137]
[2228, 2281, 2138]
[2229, 2281, 2139]
[2230, 2281, 2140]
[2231, 2281, 2141]
[2232, 2281, 2142]
[2221, 2144]
[2222, 2293, 2145]
[2223, 2293, 2146]
[2224, 2293, 2147]
[2225, 2293, 2148]
[2226, 2293, 2149]
[2227, 2293, 2150]
[2228, 2293, 2151]
[2229, 2293, 2152]
[2230, 2293, 2153]
[2231, 2293, 2154]
[2232, 2293, 2155]
[2221, 2157]
[2222, 2305, 2158]
[2223, 2305, 2159]
[2224, 2305, 2160]
[2225, 2305, 2161]
[2226, 2305, 2162]
[2227, 2305, 2163]
[2228, 2305, 2164]
[2229, 2305, 2165]
[2230, 2305, 2166]
[2231, 2305, 2167]
[2232, 2305, 2168]
[2221, 2170]
[2222, 2317, 2171]
[2223, 2317, 2172]
[2224, 2317, 2173]
[2225, 2317, 2174]
[2226, 2317, 2175]
[2227, 2317, 2176]
[2228, 2317, 2177]
[2229, 2317, 2178]
[2230, 2317, 2179]
[2231, 2317, 2180]
[2232, 2317, 2181]
[2221, 2183]
[2222, 2329, 2184]
[2223, 2329, 2185]
[2224, 2329, 2186]
[2225, 2329, 2187]
[2226, 2329, 2188]
[2227, 2329, 2189]
[2228, 2329, 2190]
[2229, 2329, 2191]
[2230, 2329, 2192]
[2231, 2329, 2193]
[2232, 2329, 2194]
[2221, 2196]
[2222, 2341, 2197]
[2223, 2341, 2198]
[2224, 2341, 2199]
[2225, 2341, 2200]
[2226, 2341, 2201]
[2227, 2341, 2202]
[2228, 2341, 2203]
[2229, 2341, 2204]
[2230, 2341, 2205]
[2231, 2341, 2206]
[2232, 2341, 2207]
[2221, 2209]
[2222, 2353, 2210]
[2223, 2353, 2211]
[2224, 2353, 2212]
[2225, 2353, 2213]
[2226, 2353, 2214]
[2227, 2353, 2215]
[2228, 2353, 2216]
[2229, 2353, 2217]
[2230, 2353, 2218]
[2231, 2353, 2219]
[2232, 2353, 2220]
[2234]
[2365, 2235]
[2365, 2236]
[2365, 2237]
[2365, 2238]
[2365, 2239]
[2365, 2240]
[2365, 2241]
[2365, 2242]
[2365, 2243]
[2365, 2244]
[2365, 2246]
[2366, 2376, 2247]
[2367, 2376, 2248]
[2368, 2376, 2249]
[2369, 2376, 2250]
[2370, 2376, 2251]
[2371, 2376, 2252]
[2372, 2376, 2253]
[2373, 2376, 2254]
[2374, 2376, 2255]
[2375, 2376, 2256]
[2365, 2258]
[2366, 2387, 2259]
[2367, 2387, 2260]
[2368, 2387, 2261]
[2369, 2387, 2262]
[2370, 2387, 2263]
[2371, 2387, 2264]
[2372, 2387, 2265]
[2373, 2387, 2266]
[2374, 2387, 2267]
[2375, 2387, 2268]
[2365, 2270]
[2366, 2398, 2271]
[2367, 2398, 2272]
[2368, 2398, 2273]
[2369, 2398, 2274]
[2370, 2398, 2275]
[2371, 2398, 2276]
[2372, 2398, 2277]
[2373, 2398, 2278]
[2374, 2398, 2279]
[2375, 2398, 2280]
[2365, 2282]
[2366, 2409, 2283]
[2367, 2409, 2284]
[2368, 2409, 2285]
[2369, 2409, 2286]
[2370, 2409, 2287]
[2371, 2409, 2288]
[2372, 2409, 2289]
[2373, 2409, 2290]
[2374, 2409, 2291]
[2375, 2409, 2292]
[2365, 2294]
[2366, 2420, 2295]
[2367, 2420, 2296]
[2368, 2420, 2297]
[2369, 2420, 2298]
[2370, 2420, 2299]
[2371, 2420, 2300]
[2372, 2420, 2301]
[2373, 2420, 2302]
[2374, 2420, 2303]
[2375, 2420, 2304]
[2365, 2306]
[2366, 2431, 2307]
[2367, 2431, 2308]
[2368, 2431, 2309]
[2369, 2431, 2310]
[2370, 2431, 2311]
[2371, 2431, 2312]
[2372, 2431, 2313]
[2373, 2431, 2314]
[2374, 2431, 2315]
[2375, 2431, 2316]
[2365, 2318]
[2366, 2442, 2319]
[2367, 2442, 2320]
[2368, 2442, 2321]
[2369, 2442, 2322]
[2370, 2442, 2323]
[2371, 2442, 2324]
[2372, 2442, 2325]
[2373, 2442, 2326]
[2374, 2442, 2327]
[2375, 2442, 2328]
[2365, 2330]
[2366, 2453, 2331]
[2367, 2453, 2332]
[2368, 2453, 2333]
[2369, 2453, 2334]
[2370, 2453, 2335]
[2371, 2453, 2336]
[2372, 2453, 2337]
[2373, 2453, 2338]
[2374, 2453, 2339]
[2375, 2453, 2340]
[2365, 2342]
[2366, 2464, 2343]
[2367, 2464, 2344]
[2368, 2464, 2345]
[2369, 2464, 2346]
[2370, 2464, 2347]
[2371, 2464, 2348]
[2372, 2464, 2349]
[2373, 2464, 2350]
[2374, 2464, 2351]
[2375, 2464, 2352]
[2365, 2354]
[2366, 2475, 2355]
[2367, 2475, 2356]
[2368, 2475, 2357]
[2369, 2475, 2358]
[2370, 2475, 2359]
[2371, 2475, 2360]
[2372, 2475, 2361]
[2373, 2475, 2362]
[2374, 2475, 2363]
[2375, 2475, 2364]
[2377]
[2486, 2378]
[2486, 2379]
[2486, 2380]
[2486, 2381]
[2486, 2382]
[2486, 2383]
[2486, 2384]
[2486, 2385]
[2486, 2386]
[2486, 2388]
[2487, 2496, 2389]
[2488, 2496, 2390]
[2489, 2496, 2391]
[2490, 2496, 2392]
[2491, 2496, 2393]
[2492, 2496, 2394]
[2493, 2496, 2395]
[2494, 2496, 2396]
[2495, 2496, 2397]
[2486, 2399]
[2487, 2506, 2400]
[2488, 2506, 2401]
[2489, 2506, 2402]
[2490, 2506, 2403]
[2491, 2506, 2404]
[2492, 2506, 2405]
[2493, 2506, 2406]
[2494, 2506, 2407]
[2495, 2506, 2408]
[2486, 2410]
[2487, 2516, 2411]
[2488, 2516, 2412]
[2489, 2516, 2413]
[2490, 2516, 2414]
[2491, 2516, 2415]
[2492, 2516, 2416]
[2493, 2516, 2417]
[2494, 2516, 2418]
[2495, 2516, 2419]
[2486, 2421]
[2487, 2526, 2422]
[2488, 2526, 2423]
[2489, 2526, 2424]
[2490, 2526, 2425]
[2491, 2526, 2426]
[2492, 2526, 2427]
[2493, 2526, 2428]
[2494, 2526, 2429]
[2495, 2526, 2430]
[2486, 2432]
[2487, 2536, 2433]
[2488, 2536, 2434]
[2489, 2536, 2435]
[2490, 2536, 2436]
[2491, 2536, 2437]
[2492, 2536, 2438]
[2493, 2536, 2439]
[2494, 2536, 2440]
[2495, 2536, 2441]
[2486, 2443]
[2487, 2546, 2444]
[2488, 2546, 2445]
[2489, 2546, 2446]
[2490, 2546, 2447]
[2491, 2546, 2448]
[2492, 2546, 2449]
[2493, 2546, 2450]
[2494, 2546, 2451]
[2495, 2546, 2452]
[2486, 2454]
[2487, 2556, 2455]
[2488, 2556, 2456]
[2489, 2556, 2457]
[2490, 2556, 2458]
[2491, 2556, 2459]
[2492, 2556, 2460]
[2493, 2556, 2461]
[2494, 2556, 2462]
[2495, 2556, 2463]
[2486, 2465]
[2487, 2566, 2466]
[2488, 2566, 2467]
[2489, 2566, 2468]
[2490, 2566, 2469]
[2491, 2566, 2470]
[2492, 2566, 2471]
[2493, 2566, 2472]
[2494, 2566, 2473]
[2495, 2566, 2474]
[2486, 2476]
[2487, 2576, 2477]
[2488, 2576, 2478]
[2489, 2576, 2479]
[2490, 2576, 2480]
[2491, 2576, 2481]
[2492, 2576, 2482]
[2493, 2576, 2483]
[2494, 2576, 2484]
[2495, 2576, 2485]
[2497]
[2586, 2498]
[2586, 2499]
[2586, 2500]
[2586, 2501]
[2586, 2502]
[2586, 2503]
[2586, 2504]
[2586, 2505]
[2586, 2507]
[2587, 2595, 2508]
[2588, 2595, 2509]
[2589, 2595, 2510]
[2590, 2595, 2511]
[2591, 2595, 2512]
[2592, 2595, 2513]
[2593, 2595, 2514]
[2594, 2595, 2515]
[2586, 2517]
[2587, 2604, 2518]
[2588, 2604, 2519]
[2589, 2604, 2520]
[2590, 2604, 2521]
[2591, 2604, 2522]
[2592, 2604, 2523]
[2593, 2604, 2524]
[2594, 2604, 2525]
[2586, 2527]
[2587, 2613, 2528]
[2588, 2613, 2529]
[2589, 2613, 2530]
[2590, 2613, 2531]
[2591, 2613, 2532]
[2592, 2613, 2533]
[2593, 2613, 2534]
[2594, 2613, 2535]
[2586, 2537]
[2587, 2622, 2538]
[2588, 2622, 2539]
[2589, 2622, 2540]
[2590, 2622, 2541]
[2591, 2622, 2542]
[2592, 2622, 2543]
[2593, 2622, 2544]
[2594, 2622, 2545]
[2586, 2547]
[2587, 2631, 2548]
[2588, 2631, 2549]
[2589, 2631, 2550]
[2590, 2631, 2551]
[2591, 2631, 2552]
[2592, 2631, 2553]
[2593, 2631, 2554]
[2594, 2631, 2555]
[2586, 2557]
[2587, 2640, 2558]
[2588, 2640, 2559]
[2589, 2640, 2560]
[2590, 2640, 2561]
[2591, 2640, 2562]
[2592, 2640, 2563]
[2593, 2640, 2564]
[2594, 2640, 2565]
[2586, 2567]
[2587, 2649, 2568]
[2588, 2649, 2569]
[2589, 2649, 2570]
[2590, 2649, 2571]
[2591, 2649, 2572]
[2592, 2649, 2573]
[2593, 2649, 2574]
[2594, 2649, 2575]
[2586, 2577]
[2587, 2658, 2578]
[2588, 2658, 2579]
[2589, 2658, 2580]
[2590, 2658, 2581]
[2591, 2658, 2582]
[2592, 2658, 2583]
[2593, 2658, 2584]
[2594, 2658, 2585]
[2596]
[2667, 2597]
[2667, 2598]
[2667, 2599]
[2667, 2600]
[2667, 2601]
[2667, 2602]
[2667, 2603]
[2667, 2605]
[2668, 2675, 2606]
[2669, 2675, 2607]
[2670, 2675, 2608]
[2671, 2675, 2609]
[2672, 2675, 2610]
[2673, 2675, 2611]
[2674, 2675, 2612]
[2667, 2614]
[2668, 2683, 2615]
[2669, 2683, 2616]
[2670, 2683, 2617]
[2671, 2683, 2618]
[2672, 2683, 2619]
[2673, 2683, 2620]
[2674, 2683, 2621]
[2667, 2623]
[2668, 2691, 2624]
[2669, 2691, 2625]
[2670, 2691, 2626]
[2671, 2691, 2627]
[2672, 2691, 2628]
[2673, 2691, 2629]
[2674, 2691, 2630]
[2667, 2632]
[2668, 2699, 2633]
[2669, 2699, 2634]
[2670, 2699, 2635]
[2671, 2699, 2636]
[2672, 2699, 2637]
[2673, 2699, 2638]
[2674, 2699, 2639]
[2667, 2641]
[2668, 2707, 2642]
[2669, 2707, 2643]
[2670, 2707, 2644]
[2671, 2707, 2645]
[2672, 2707, 2646]
[2673, 2707, 2647]
[2674, 2707, 2648]
[2667, 2650]
[2668, 2715, 2651]
[2669, 2715, 2652]
[2670, 2715, 2653]
[2671, 2715, 2654]
[2672, 2715, 2655]
[2673, 2715, 2656]
[2674, 2715, 2657]
[2667, 2659]
[2668, 2723, 2660]
[2669, 2723, 2661]
[2670, 2723, 2662]
[2671, 2723, 2663]
[2672, 2723, 2664]
[2673, 2723, 2665]
[2674, 2723, 2666]
[2676]
[2731, 2677]
[2731, 2678]
[2731, 2679]
[2731, 2680]
[2731, 2681]
[2731, 2682]
[2731, 2684]
[2732, 2738, 2685]
[2733, 2738, 2686]
[2734, 2738, 2687]
[2735, 2738, 2688]
[2736, 2738, 2689]
[2737, 2738, 2690]
[2731, 2692]
[2732, 2745, 2693]
[2733, 2745, 2694]
[2734, 2745, 2695]
[2735, 2745, 2696]
[2736, 2745, 2697]
[2737, 2745, 2698]
[2731, 2700]
[2732, 2752, 2701]
[2733, 2752, 2702]
[2734, 2752, 2703]
[2735, 2752, 2704]
[2736, 2752, 2705]
[2737, 2752, 2706]
[2731, 2708]
[2732, 2759, 2709]
[2733, 2759, 2710]
[2734, 2759, 2711]
[2735, 2759, 2712]
[2736, 2759, 2713]
[2737, 2759, 2714]
[2731, 2716]
[2732, 2766, 2717]
[2733, 2766, 2718]
[2734, 2766, 2719]
[2735, 2766, 2720]
[2736, 2766, 2721]
[2737, 2766, 2722]
[2731, 2724]
[2732, 2773, 2725]
[2733, 2773, 2726]
[2734, 2773, 2727]
[2735, 2773, 2728]
[2736, 2773, 2729]
[2737, 2773, 2730]
[2739]
[2780, 2740]
[2780, 2741]
[2780, 2742]
[2780, 2743]
[2780, 2744]
[2780, 2746]
[2781, 2786, 2747]
[2782, 2786, 2748]
[2783, 2786, 2749]
[2784, 2786, 2750]
[2785, 2786, 2751]
[2780, 2753]
[2781, 2792, 2754]
[2782, 2792, 2755]
[2783, 2792, 2756]
[2784, 2792, 2757]
[2785, 2792, 2758]
[2780, 2760]
[2781, 2798, 2761]
[2782, 2798, 2762]
[2783, 2798, 2763]
[2784, 2798, 2764]
[2785, 2798, 2765]
[2780, 2767]
[2781, 2804, 2768]
[2782, 2804, 2769]
[2783, 2804, 2770]
[2784, 2804, 2771]
[2785, 2804, 2772]
[2780, 2774]
[2781, 2810, 2775]
[2782, 2810, 2776]
[2783, 2810, 2777]
[2784, 2810, 2778]
[2785, 2810, 2779]
[2787]
[2816, 2788]
[2816, 2789]
[2816, 2790]
[2816, 2791]
[2816, 2793]
[2817, 2821, 2794]
[2818, 2821, 2795]
[2819, 2821, 2796]
[2820, 2821, 2797]
[2816, 2799]
[2817, 2826, 2800]
[2818, 2826, 2801]
[2819, 2826, 2802]
[2820, 2826, 2803]
[2816, 2805]
[2817, 2831, 2806]
[2818, 2831, 2807]
[2819, 2831, 2808]
[2820, 2831, 2809]
[2816, 2811]
[2817, 2836, 2812]
[2818, 2836, 2813]
[2819, 2836, 2814]
[2820, 2836, 2815]
[2822]
[2841, 2823]
[2841, 2824]
[2841, 2825]
[2841, 2827]
[2842, 2845, 2828]
[2843, 2845, 2829]
[2844, 2845, 2830]
[2841, 2832]
[2842, 2849, 2833]
[2843, 2849, 2834]
[2844, 2849, 2835]
[2841, 2837]
[2842, 2853, 2838]
[2843, 2853, 2839]
[2844, 2853, 2840]
[2846]
[2857, 2847]
[2857, 2848]
[2857, 2850]
[2858, 2860, 2851]
[2859, 2860, 2852]
[2857, 2854]
[2858, 2863, 2855]
[2859, 2863, 2856]
[2861]
[2866, 2862]
[2866, 2864]
[2867, 2868, 2865]
[2869]
